PWD C:\Users\Attila\anaconda3\Lib\statchem\statchem\doc\latex\_build\latex
INPUT C:\Users\Attila\AppData\Local\MiKTeX\miktex\data\le\pdftex\pdflatex.fmt
INPUT statchem.tex
OUTPUT statchem.log
INPUT .\sphinxmanual.cls
INPUT .\sphinxmanual.cls
INPUT sphinxmanual.cls
INPUT .\sphinxmanual.cls
INPUT .\sphinxmanual.cls
INPUT .\sphinxmanual.cls
INPUT .\sphinxmanual.cls
INPUT .\sphinxmanual.cls
INPUT sphinxmanual.cls
INPUT .\sphinxmanual.cls
INPUT sphinxmanual.cls
INPUT C:\Users\Attila\AppData\Local\Programs\MiKTeX\tex\latex\base\report.cls
INPUT C:\Users\Attila\AppData\Local\Programs\MiKTeX\tex\latex\base\report.cls
INPUT C:\Users\Attila\AppData\Local\Programs\MiKTeX\tex\latex\base\report.cls
INPUT C:\Users\Attila\AppData\Local\Programs\MiKTeX\tex\latex\base\report.cls
INPUT C:\Users\Attila\AppData\Local\Programs\MiKTeX\tex\latex\base\report.cls
INPUT C:\Users\Attila\AppData\Local\Programs\MiKTeX\tex\latex\base\report.cls
INPUT C:\Users\Attila\AppData\Local\Programs\MiKTeX\tex\latex\base\report.cls
INPUT C:\Users\Attila\AppData\Local\Programs\MiKTeX\tex\latex\base\report.cls
INPUT C:\Users\Attila\AppData\Local\Programs\MiKTeX\tex\latex\base\report.cls
INPUT C:\Users\Attila\AppData\Local\Programs\MiKTeX\tex\latex\base\report.cls
INPUT C:\Users\Attila\AppData\Local\Programs\MiKTeX\tex\latex\base\report.cls
INPUT C:\Users\Attila\AppData\Local\Programs\MiKTeX\tex\latex\base\report.cls
INPUT C:\Users\Attila\AppData\Local\Programs\MiKTeX\tex\latex\base\report.cls
INPUT C:\Users\Attila\AppData\Local\Programs\MiKTeX\tex\latex\base\report.cls
INPUT C:\Users\Attila\AppData\Local\Programs\MiKTeX\tex\latex\base\report.cls
INPUT C:\Users\Attila\AppData\Local\Programs\MiKTeX\tex\latex\base\report.cls
INPUT C:\Users\Attila\AppData\Local\Programs\MiKTeX\tex\latex\base\report.cls
INPUT C:\Users\Attila\AppData\Local\Programs\MiKTeX\tex\latex\base\report.cls
INPUT C:\Users\Attila\AppData\Local\Programs\MiKTeX\tex\latex\base\report.cls
INPUT C:\Users\Attila\AppData\Local\Programs\MiKTeX\tex\latex\base\report.cls
INPUT C:\Users\Attila\AppData\Local\Programs\MiKTeX\tex\latex\base\report.cls
INPUT C:\Users\Attila\AppData\Local\Programs\MiKTeX\tex\latex\base\size10.clo
INPUT C:\Users\Attila\AppData\Local\Programs\MiKTeX\tex\latex\base\size10.clo
INPUT C:\Users\Attila\AppData\Local\Programs\MiKTeX\tex\latex\base\size10.clo
INPUT C:\Users\Attila\AppData\Local\Programs\MiKTeX\tex\latex\base\size10.clo
INPUT C:\Users\Attila\AppData\Local\Programs\MiKTeX\tex\latex\base\textcomp.sty
INPUT C:\Users\Attila\AppData\Local\Programs\MiKTeX\tex\latex\base\textcomp.sty
INPUT C:\Users\Attila\AppData\Local\Programs\MiKTeX\tex\latex\base\inputenc.sty
INPUT C:\Users\Attila\AppData\Local\Programs\MiKTeX\tex\latex\base\inputenc.sty
INPUT C:\Users\Attila\AppData\Local\Programs\MiKTeX\tex\latex\base\inputenc.sty
INPUT C:\Users\Attila\AppData\Local\Programs\MiKTeX\tex\latex\base\inputenc.sty
INPUT C:\Users\Attila\AppData\Local\Programs\MiKTeX\tex\latex\base\inputenc.sty
INPUT C:\Users\Attila\AppData\Local\Programs\MiKTeX\tex\latex\base\inputenc.sty
INPUT C:\Users\Attila\AppData\Local\Programs\MiKTeX\tex\latex\base\inputenc.sty
INPUT C:\Users\Attila\AppData\Local\Programs\MiKTeX\tex\latex\base\inputenc.sty
INPUT C:\Users\Attila\AppData\Local\Programs\MiKTeX\tex\latex\base\inputenc.sty
INPUT C:\Users\Attila\AppData\Local\Programs\MiKTeX\tex\latex\base\inputenc.sty
INPUT C:\Users\Attila\AppData\Local\Programs\MiKTeX\tex\latex\base\inputenc.sty
INPUT C:\Users\Attila\AppData\Local\Programs\MiKTeX\tex\latex\cmap\cmap.sty
INPUT C:\Users\Attila\AppData\Local\Programs\MiKTeX\tex\latex\cmap\cmap.sty
INPUT C:\Users\Attila\AppData\Local\Programs\MiKTeX\tex\latex\cmap\cmap.sty
INPUT C:\Users\Attila\AppData\Local\Programs\MiKTeX\tex\latex\cmap\cmap.sty
INPUT C:\Users\Attila\AppData\Local\Programs\MiKTeX\tex\latex\cmap\cmap.sty
INPUT C:\Users\Attila\AppData\Local\Programs\MiKTeX\tex\latex\cmap\cmap.sty
INPUT C:\Users\Attila\AppData\Local\Programs\MiKTeX\tex\latex\cmap\cmap.sty
INPUT C:\Users\Attila\AppData\Local\Programs\MiKTeX\tex\latex\cmap\cmap.sty
INPUT C:\Users\Attila\AppData\Local\Programs\MiKTeX\tex\latex\cmap\cmap.sty
INPUT C:\Users\Attila\AppData\Local\Programs\MiKTeX\tex\latex\cmap\cmap.sty
INPUT C:\Users\Attila\AppData\Local\Programs\MiKTeX\tex\latex\cmap\cmap.sty
INPUT C:\Users\Attila\AppData\Local\Programs\MiKTeX\tex\latex\base\fontenc.sty
INPUT C:\Users\Attila\AppData\Local\Programs\MiKTeX\tex\latex\base\fontenc.sty
INPUT C:\Users\Attila\AppData\Local\Programs\MiKTeX\tex\latex\base\fontenc.sty
INPUT C:\Users\Attila\AppData\Local\Programs\MiKTeX\tex\latex\base\fontenc.sty
INPUT C:\Users\Attila\AppData\Local\Programs\MiKTeX\tex\latex\base\fontenc.sty
INPUT C:\Users\Attila\AppData\Local\Programs\MiKTeX\tex\latex\base\fontenc.sty
INPUT C:\Users\Attila\AppData\Local\Programs\MiKTeX\tex\latex\base\fontenc.sty
INPUT C:\Users\Attila\AppData\Local\Programs\MiKTeX\tex\latex\base\fontenc.sty
INPUT C:\Users\Attila\AppData\Local\Programs\MiKTeX\tex\latex\base\fontenc.sty
INPUT C:\Users\Attila\AppData\Local\Programs\MiKTeX\tex\latex\base\fontenc.sty
INPUT C:\Users\Attila\AppData\Local\Programs\MiKTeX\tex\latex\base\fontenc.sty
INPUT C:\Users\Attila\AppData\Local\Programs\MiKTeX\fonts\tfm\jknappen\ec\ecrm1000.tfm
INPUT C:\Users\Attila\AppData\Local\Programs\MiKTeX\tex\latex\cmap\t1.cmap
INPUT C:\Users\Attila\AppData\Local\Programs\MiKTeX\tex\latex\cmap\t1.cmap
OUTPUT statchem.pdf
INPUT C:\Users\Attila\AppData\Local\Programs\MiKTeX\tex\latex\cmap\t1.cmap
INPUT C:\Users\Attila\AppData\Local\Programs\MiKTeX\tex\latex\amsmath\amsmath.sty
INPUT C:\Users\Attila\AppData\Local\Programs\MiKTeX\tex\latex\amsmath\amsmath.sty
INPUT C:\Users\Attila\AppData\Local\Programs\MiKTeX\tex\latex\amsmath\amsmath.sty
INPUT C:\Users\Attila\AppData\Local\Programs\MiKTeX\tex\latex\amsmath\amsmath.sty
INPUT C:\Users\Attila\AppData\Local\Programs\MiKTeX\tex\latex\amsmath\amsmath.sty
INPUT C:\Users\Attila\AppData\Local\Programs\MiKTeX\tex\latex\amsmath\amsmath.sty
INPUT C:\Users\Attila\AppData\Local\Programs\MiKTeX\tex\latex\amsmath\amsmath.sty
INPUT C:\Users\Attila\AppData\Local\Programs\MiKTeX\tex\latex\amsmath\amsmath.sty
INPUT C:\Users\Attila\AppData\Local\Programs\MiKTeX\tex\latex\amsmath\amsmath.sty
INPUT C:\Users\Attila\AppData\Local\Programs\MiKTeX\tex\latex\amsmath\amsmath.sty
INPUT C:\Users\Attila\AppData\Local\Programs\MiKTeX\tex\latex\amsmath\amsmath.sty
INPUT C:\Users\Attila\AppData\Local\Programs\MiKTeX\tex\latex\amsmath\amsopn.sty
INPUT C:\Users\Attila\AppData\Local\Programs\MiKTeX\tex\latex\amsmath\amsopn.sty
INPUT C:\Users\Attila\AppData\Local\Programs\MiKTeX\tex\latex\amsmath\amstext.sty
INPUT C:\Users\Attila\AppData\Local\Programs\MiKTeX\tex\latex\amsmath\amstext.sty
INPUT C:\Users\Attila\AppData\Local\Programs\MiKTeX\tex\latex\amsmath\amstext.sty
INPUT C:\Users\Attila\AppData\Local\Programs\MiKTeX\tex\latex\amsmath\amstext.sty
INPUT C:\Users\Attila\AppData\Local\Programs\MiKTeX\tex\latex\amsmath\amstext.sty
INPUT C:\Users\Attila\AppData\Local\Programs\MiKTeX\tex\latex\amsmath\amstext.sty
INPUT C:\Users\Attila\AppData\Local\Programs\MiKTeX\tex\latex\amsmath\amstext.sty
INPUT C:\Users\Attila\AppData\Local\Programs\MiKTeX\tex\latex\amsmath\amstext.sty
INPUT C:\Users\Attila\AppData\Local\Programs\MiKTeX\tex\latex\amsmath\amstext.sty
INPUT C:\Users\Attila\AppData\Local\Programs\MiKTeX\tex\latex\amsmath\amstext.sty
INPUT C:\Users\Attila\AppData\Local\Programs\MiKTeX\tex\latex\amsmath\amstext.sty
INPUT C:\Users\Attila\AppData\Local\Programs\MiKTeX\tex\latex\amsmath\amsgen.sty
INPUT C:\Users\Attila\AppData\Local\Programs\MiKTeX\tex\latex\amsmath\amsgen.sty
INPUT C:\Users\Attila\AppData\Local\Programs\MiKTeX\tex\latex\amsmath\amsgen.sty
INPUT C:\Users\Attila\AppData\Local\Programs\MiKTeX\tex\latex\amsmath\amsgen.sty
INPUT C:\Users\Attila\AppData\Local\Programs\MiKTeX\tex\latex\amsmath\amsgen.sty
INPUT C:\Users\Attila\AppData\Local\Programs\MiKTeX\tex\latex\amsmath\amsgen.sty
INPUT C:\Users\Attila\AppData\Local\Programs\MiKTeX\tex\latex\amsmath\amsgen.sty
INPUT C:\Users\Attila\AppData\Local\Programs\MiKTeX\tex\latex\amsmath\amsgen.sty
INPUT C:\Users\Attila\AppData\Local\Programs\MiKTeX\tex\latex\amsmath\amsgen.sty
INPUT C:\Users\Attila\AppData\Local\Programs\MiKTeX\tex\latex\amsmath\amsgen.sty
INPUT C:\Users\Attila\AppData\Local\Programs\MiKTeX\tex\latex\amsmath\amsgen.sty
INPUT C:\Users\Attila\AppData\Local\Programs\MiKTeX\tex\latex\amsmath\amsbsy.sty
INPUT C:\Users\Attila\AppData\Local\Programs\MiKTeX\tex\latex\amsmath\amsbsy.sty
INPUT C:\Users\Attila\AppData\Local\Programs\MiKTeX\tex\latex\amsmath\amsbsy.sty
INPUT C:\Users\Attila\AppData\Local\Programs\MiKTeX\tex\latex\amsmath\amsbsy.sty
INPUT C:\Users\Attila\AppData\Local\Programs\MiKTeX\tex\latex\amsmath\amsbsy.sty
INPUT C:\Users\Attila\AppData\Local\Programs\MiKTeX\tex\latex\amsmath\amsbsy.sty
INPUT C:\Users\Attila\AppData\Local\Programs\MiKTeX\tex\latex\amsmath\amsbsy.sty
INPUT C:\Users\Attila\AppData\Local\Programs\MiKTeX\tex\latex\amsmath\amsbsy.sty
INPUT C:\Users\Attila\AppData\Local\Programs\MiKTeX\tex\latex\amsmath\amsbsy.sty
INPUT C:\Users\Attila\AppData\Local\Programs\MiKTeX\tex\latex\amsmath\amsbsy.sty
INPUT C:\Users\Attila\AppData\Local\Programs\MiKTeX\tex\latex\amsmath\amsbsy.sty
INPUT C:\Users\Attila\AppData\Local\Programs\MiKTeX\tex\latex\amsmath\amsgen.sty
INPUT C:\Users\Attila\AppData\Local\Programs\MiKTeX\tex\latex\amsmath\amsopn.sty
INPUT C:\Users\Attila\AppData\Local\Programs\MiKTeX\tex\latex\amsmath\amsopn.sty
INPUT C:\Users\Attila\AppData\Local\Programs\MiKTeX\tex\latex\amsmath\amsopn.sty
INPUT C:\Users\Attila\AppData\Local\Programs\MiKTeX\tex\latex\amsmath\amsopn.sty
INPUT C:\Users\Attila\AppData\Local\Programs\MiKTeX\tex\latex\amsmath\amsopn.sty
INPUT C:\Users\Attila\AppData\Local\Programs\MiKTeX\tex\latex\amsmath\amsopn.sty
INPUT C:\Users\Attila\AppData\Local\Programs\MiKTeX\tex\latex\amsmath\amsopn.sty
INPUT C:\Users\Attila\AppData\Local\Programs\MiKTeX\tex\latex\amsmath\amsopn.sty
INPUT C:\Users\Attila\AppData\Local\Programs\MiKTeX\tex\latex\amsmath\amsopn.sty
INPUT C:\Users\Attila\AppData\Local\Programs\MiKTeX\tex\latex\amsmath\amsopn.sty
INPUT C:\Users\Attila\AppData\Local\Programs\MiKTeX\tex\latex\amsmath\amsopn.sty
INPUT C:\Users\Attila\AppData\Local\Programs\MiKTeX\tex\latex\amsmath\amsgen.sty
INPUT C:\Users\Attila\AppData\Local\Programs\MiKTeX\tex\latex\amsfonts\amssymb.sty
INPUT C:\Users\Attila\AppData\Local\Programs\MiKTeX\tex\latex\amsfonts\amssymb.sty
INPUT C:\Users\Attila\AppData\Local\Programs\MiKTeX\tex\latex\amsfonts\amssymb.sty
INPUT C:\Users\Attila\AppData\Local\Programs\MiKTeX\tex\latex\amsfonts\amssymb.sty
INPUT C:\Users\Attila\AppData\Local\Programs\MiKTeX\tex\latex\amsfonts\amssymb.sty
INPUT C:\Users\Attila\AppData\Local\Programs\MiKTeX\tex\latex\amsfonts\amssymb.sty
INPUT C:\Users\Attila\AppData\Local\Programs\MiKTeX\tex\latex\amsfonts\amssymb.sty
INPUT C:\Users\Attila\AppData\Local\Programs\MiKTeX\tex\latex\amsfonts\amssymb.sty
INPUT C:\Users\Attila\AppData\Local\Programs\MiKTeX\tex\latex\amsfonts\amssymb.sty
INPUT C:\Users\Attila\AppData\Local\Programs\MiKTeX\tex\latex\amsfonts\amssymb.sty
INPUT C:\Users\Attila\AppData\Local\Programs\MiKTeX\tex\latex\amsfonts\amssymb.sty
INPUT C:\Users\Attila\AppData\Local\Programs\MiKTeX\tex\latex\amsfonts\amsfonts.sty
INPUT C:\Users\Attila\AppData\Local\Programs\MiKTeX\tex\latex\amsfonts\amsfonts.sty
INPUT C:\Users\Attila\AppData\Local\Programs\MiKTeX\tex\latex\amsfonts\amsfonts.sty
INPUT C:\Users\Attila\AppData\Local\Programs\MiKTeX\tex\latex\amsfonts\amsfonts.sty
INPUT C:\Users\Attila\AppData\Local\Programs\MiKTeX\tex\latex\amsfonts\amsfonts.sty
INPUT C:\Users\Attila\AppData\Local\Programs\MiKTeX\tex\latex\amsfonts\amsfonts.sty
INPUT C:\Users\Attila\AppData\Local\Programs\MiKTeX\tex\latex\amsfonts\amsfonts.sty
INPUT C:\Users\Attila\AppData\Local\Programs\MiKTeX\tex\latex\amsfonts\amsfonts.sty
INPUT C:\Users\Attila\AppData\Local\Programs\MiKTeX\tex\latex\amsfonts\amsfonts.sty
INPUT C:\Users\Attila\AppData\Local\Programs\MiKTeX\tex\latex\amsfonts\amsfonts.sty
INPUT C:\Users\Attila\AppData\Local\Programs\MiKTeX\tex\latex\amsfonts\amsfonts.sty
INPUT C:\Users\Attila\AppData\Local\Programs\MiKTeX\tex\latex\amsmath\amstext.sty
INPUT C:\Users\Attila\AppData\Local\Programs\MiKTeX\tex\generic\babel\babel.sty
INPUT C:\Users\Attila\AppData\Local\Programs\MiKTeX\tex\generic\babel\babel.sty
INPUT C:\Users\Attila\AppData\Local\Programs\MiKTeX\tex\generic\babel\babel.sty
INPUT C:\Users\Attila\AppData\Local\Programs\MiKTeX\tex\generic\babel\babel.sty
INPUT C:\Users\Attila\AppData\Local\Programs\MiKTeX\tex\generic\babel\babel.sty
INPUT C:\Users\Attila\AppData\Local\Programs\MiKTeX\tex\generic\babel\babel.sty
INPUT C:\Users\Attila\AppData\Local\Programs\MiKTeX\tex\generic\babel\babel.sty
INPUT C:\Users\Attila\AppData\Local\Programs\MiKTeX\tex\generic\babel\babel.sty
INPUT C:\Users\Attila\AppData\Local\Programs\MiKTeX\tex\generic\babel\babel.sty
INPUT C:\Users\Attila\AppData\Local\Programs\MiKTeX\tex\generic\babel\babel.sty
INPUT C:\Users\Attila\AppData\Local\Programs\MiKTeX\tex\generic\babel\babel.sty
INPUT C:\Users\Attila\AppData\Local\Programs\MiKTeX\tex\generic\babel\babel.def
INPUT C:\Users\Attila\AppData\Local\Programs\MiKTeX\tex\generic\babel\txtbabel.def
INPUT C:\Users\Attila\AppData\Local\Programs\MiKTeX\tex\latex\arabi\bblopts.cfg
INPUT C:\Users\Attila\AppData\Local\Programs\MiKTeX\tex\latex\arabi\bblopts.cfg
INPUT C:\Users\Attila\AppData\Local\Programs\MiKTeX\tex\latex\arabi\bblopts.cfg
INPUT C:\Users\Attila\AppData\Local\Programs\MiKTeX\tex\latex\arabi\bblopts.cfg
INPUT C:\Users\Attila\AppData\Local\Programs\MiKTeX\tex\latex\babel-english\english.ldf
INPUT C:\Users\Attila\AppData\Local\Programs\MiKTeX\tex\latex\babel-english\english.ldf
INPUT C:\Users\Attila\AppData\Local\Programs\MiKTeX\tex\latex\babel-english\english.ldf
INPUT C:\Users\Attila\AppData\Local\Programs\MiKTeX\tex\latex\babel-english\english.ldf
INPUT C:\Users\Attila\AppData\Local\Programs\MiKTeX\tex\latex\babel-english\english.ldf
INPUT C:\Users\Attila\AppData\Local\Programs\MiKTeX\tex\latex\babel-english\english.ldf
INPUT C:\Users\Attila\AppData\Local\Programs\MiKTeX\tex\latex\psnfss\times.sty
INPUT C:\Users\Attila\AppData\Local\Programs\MiKTeX\tex\latex\psnfss\times.sty
INPUT C:\Users\Attila\AppData\Local\Programs\MiKTeX\tex\latex\psnfss\times.sty
INPUT C:\Users\Attila\AppData\Local\Programs\MiKTeX\tex\latex\psnfss\times.sty
INPUT C:\Users\Attila\AppData\Local\Programs\MiKTeX\tex\latex\psnfss\times.sty
INPUT C:\Users\Attila\AppData\Local\Programs\MiKTeX\tex\latex\psnfss\times.sty
INPUT C:\Users\Attila\AppData\Local\Programs\MiKTeX\tex\latex\psnfss\times.sty
INPUT C:\Users\Attila\AppData\Local\Programs\MiKTeX\tex\latex\psnfss\times.sty
INPUT C:\Users\Attila\AppData\Local\Programs\MiKTeX\tex\latex\psnfss\times.sty
INPUT C:\Users\Attila\AppData\Local\Programs\MiKTeX\tex\latex\psnfss\times.sty
INPUT C:\Users\Attila\AppData\Local\Programs\MiKTeX\tex\latex\psnfss\times.sty
INPUT C:\Users\Attila\AppData\Local\Programs\MiKTeX\tex\latex\fncychap\fncychap.sty
INPUT C:\Users\Attila\AppData\Local\Programs\MiKTeX\tex\latex\fncychap\fncychap.sty
INPUT C:\Users\Attila\AppData\Local\Programs\MiKTeX\tex\latex\fncychap\fncychap.sty
INPUT C:\Users\Attila\AppData\Local\Programs\MiKTeX\tex\latex\fncychap\fncychap.sty
INPUT C:\Users\Attila\AppData\Local\Programs\MiKTeX\tex\latex\fncychap\fncychap.sty
INPUT C:\Users\Attila\AppData\Local\Programs\MiKTeX\tex\latex\fncychap\fncychap.sty
INPUT C:\Users\Attila\AppData\Local\Programs\MiKTeX\tex\latex\fncychap\fncychap.sty
INPUT C:\Users\Attila\AppData\Local\Programs\MiKTeX\tex\latex\fncychap\fncychap.sty
INPUT C:\Users\Attila\AppData\Local\Programs\MiKTeX\tex\latex\fncychap\fncychap.sty
INPUT C:\Users\Attila\AppData\Local\Programs\MiKTeX\tex\latex\fncychap\fncychap.sty
INPUT C:\Users\Attila\AppData\Local\Programs\MiKTeX\tex\latex\fncychap\fncychap.sty
INPUT .\sphinx.sty
INPUT .\sphinx.sty
INPUT sphinx.sty
INPUT .\sphinx.sty
INPUT .\sphinx.sty
INPUT .\sphinx.sty
INPUT .\sphinx.sty
INPUT .\sphinx.sty
INPUT sphinx.sty
INPUT .\sphinx.sty
INPUT sphinx.sty
INPUT C:\Users\Attila\AppData\Local\Programs\MiKTeX\tex\generic\ltxcmds\ltxcmds.sty
INPUT C:\Users\Attila\AppData\Local\Programs\MiKTeX\tex\generic\ltxcmds\ltxcmds.sty
INPUT C:\Users\Attila\AppData\Local\Programs\MiKTeX\tex\generic\ltxcmds\ltxcmds.sty
INPUT C:\Users\Attila\AppData\Local\Programs\MiKTeX\tex\generic\ltxcmds\ltxcmds.sty
INPUT C:\Users\Attila\AppData\Local\Programs\MiKTeX\tex\generic\ltxcmds\ltxcmds.sty
INPUT C:\Users\Attila\AppData\Local\Programs\MiKTeX\tex\generic\ltxcmds\ltxcmds.sty
INPUT C:\Users\Attila\AppData\Local\Programs\MiKTeX\tex\generic\ltxcmds\ltxcmds.sty
INPUT C:\Users\Attila\AppData\Local\Programs\MiKTeX\tex\generic\ltxcmds\ltxcmds.sty
INPUT C:\Users\Attila\AppData\Local\Programs\MiKTeX\tex\generic\ltxcmds\ltxcmds.sty
INPUT C:\Users\Attila\AppData\Local\Programs\MiKTeX\tex\generic\ltxcmds\ltxcmds.sty
INPUT C:\Users\Attila\AppData\Local\Programs\MiKTeX\tex\generic\ltxcmds\ltxcmds.sty
INPUT C:\Users\Attila\AppData\Local\Programs\MiKTeX\tex\latex\graphics\graphicx.sty
INPUT C:\Users\Attila\AppData\Local\Programs\MiKTeX\tex\latex\graphics\graphicx.sty
INPUT C:\Users\Attila\AppData\Local\Programs\MiKTeX\tex\latex\graphics\graphicx.sty
INPUT C:\Users\Attila\AppData\Local\Programs\MiKTeX\tex\latex\graphics\graphicx.sty
INPUT C:\Users\Attila\AppData\Local\Programs\MiKTeX\tex\latex\graphics\graphicx.sty
INPUT C:\Users\Attila\AppData\Local\Programs\MiKTeX\tex\latex\graphics\graphicx.sty
INPUT C:\Users\Attila\AppData\Local\Programs\MiKTeX\tex\latex\graphics\graphicx.sty
INPUT C:\Users\Attila\AppData\Local\Programs\MiKTeX\tex\latex\graphics\graphicx.sty
INPUT C:\Users\Attila\AppData\Local\Programs\MiKTeX\tex\latex\graphics\graphicx.sty
INPUT C:\Users\Attila\AppData\Local\Programs\MiKTeX\tex\latex\graphics\graphicx.sty
INPUT C:\Users\Attila\AppData\Local\Programs\MiKTeX\tex\latex\graphics\graphicx.sty
INPUT C:\Users\Attila\AppData\Local\Programs\MiKTeX\tex\latex\graphics\keyval.sty
INPUT C:\Users\Attila\AppData\Local\Programs\MiKTeX\tex\latex\graphics\keyval.sty
INPUT C:\Users\Attila\AppData\Local\Programs\MiKTeX\tex\latex\graphics\keyval.sty
INPUT C:\Users\Attila\AppData\Local\Programs\MiKTeX\tex\latex\graphics\keyval.sty
INPUT C:\Users\Attila\AppData\Local\Programs\MiKTeX\tex\latex\graphics\keyval.sty
INPUT C:\Users\Attila\AppData\Local\Programs\MiKTeX\tex\latex\graphics\keyval.sty
INPUT C:\Users\Attila\AppData\Local\Programs\MiKTeX\tex\latex\graphics\keyval.sty
INPUT C:\Users\Attila\AppData\Local\Programs\MiKTeX\tex\latex\graphics\keyval.sty
INPUT C:\Users\Attila\AppData\Local\Programs\MiKTeX\tex\latex\graphics\keyval.sty
INPUT C:\Users\Attila\AppData\Local\Programs\MiKTeX\tex\latex\graphics\keyval.sty
INPUT C:\Users\Attila\AppData\Local\Programs\MiKTeX\tex\latex\graphics\keyval.sty
INPUT C:\Users\Attila\AppData\Local\Programs\MiKTeX\tex\latex\graphics\graphics.sty
INPUT C:\Users\Attila\AppData\Local\Programs\MiKTeX\tex\latex\graphics\graphics.sty
INPUT C:\Users\Attila\AppData\Local\Programs\MiKTeX\tex\latex\graphics\graphics.sty
INPUT C:\Users\Attila\AppData\Local\Programs\MiKTeX\tex\latex\graphics\graphics.sty
INPUT C:\Users\Attila\AppData\Local\Programs\MiKTeX\tex\latex\graphics\graphics.sty
INPUT C:\Users\Attila\AppData\Local\Programs\MiKTeX\tex\latex\graphics\graphics.sty
INPUT C:\Users\Attila\AppData\Local\Programs\MiKTeX\tex\latex\graphics\graphics.sty
INPUT C:\Users\Attila\AppData\Local\Programs\MiKTeX\tex\latex\graphics\graphics.sty
INPUT C:\Users\Attila\AppData\Local\Programs\MiKTeX\tex\latex\graphics\graphics.sty
INPUT C:\Users\Attila\AppData\Local\Programs\MiKTeX\tex\latex\graphics\graphics.sty
INPUT C:\Users\Attila\AppData\Local\Programs\MiKTeX\tex\latex\graphics\graphics.sty
INPUT C:\Users\Attila\AppData\Local\Programs\MiKTeX\tex\latex\graphics\trig.sty
INPUT C:\Users\Attila\AppData\Local\Programs\MiKTeX\tex\latex\graphics\trig.sty
INPUT C:\Users\Attila\AppData\Local\Programs\MiKTeX\tex\latex\graphics\trig.sty
INPUT C:\Users\Attila\AppData\Local\Programs\MiKTeX\tex\latex\graphics\trig.sty
INPUT C:\Users\Attila\AppData\Local\Programs\MiKTeX\tex\latex\graphics\trig.sty
INPUT C:\Users\Attila\AppData\Local\Programs\MiKTeX\tex\latex\graphics\trig.sty
INPUT C:\Users\Attila\AppData\Local\Programs\MiKTeX\tex\latex\graphics\trig.sty
INPUT C:\Users\Attila\AppData\Local\Programs\MiKTeX\tex\latex\graphics\trig.sty
INPUT C:\Users\Attila\AppData\Local\Programs\MiKTeX\tex\latex\graphics\trig.sty
INPUT C:\Users\Attila\AppData\Local\Programs\MiKTeX\tex\latex\graphics\trig.sty
INPUT C:\Users\Attila\AppData\Local\Programs\MiKTeX\tex\latex\graphics\trig.sty
INPUT C:\Users\Attila\AppData\Local\Programs\MiKTeX\tex\latex\graphics-cfg\graphics.cfg
INPUT C:\Users\Attila\AppData\Local\Programs\MiKTeX\tex\latex\graphics-cfg\graphics.cfg
INPUT C:\Users\Attila\AppData\Local\Programs\MiKTeX\tex\latex\graphics-cfg\graphics.cfg
INPUT C:\Users\Attila\AppData\Local\Programs\MiKTeX\tex\latex\graphics-cfg\graphics.cfg
INPUT C:\Users\Attila\AppData\Local\Programs\MiKTeX\tex\latex\graphics-def\pdftex.def
INPUT C:\Users\Attila\AppData\Local\Programs\MiKTeX\tex\latex\graphics-def\pdftex.def
INPUT C:\Users\Attila\AppData\Local\Programs\MiKTeX\tex\latex\graphics-def\pdftex.def
INPUT C:\Users\Attila\AppData\Local\Programs\MiKTeX\tex\latex\graphics-def\pdftex.def
INPUT C:\Users\Attila\AppData\Local\Programs\MiKTeX\tex\latex\fancyhdr\fancyhdr.sty
INPUT C:\Users\Attila\AppData\Local\Programs\MiKTeX\tex\latex\fancyhdr\fancyhdr.sty
INPUT C:\Users\Attila\AppData\Local\Programs\MiKTeX\tex\latex\fancyhdr\fancyhdr.sty
INPUT C:\Users\Attila\AppData\Local\Programs\MiKTeX\tex\latex\fancyhdr\fancyhdr.sty
INPUT C:\Users\Attila\AppData\Local\Programs\MiKTeX\tex\latex\fancyhdr\fancyhdr.sty
INPUT C:\Users\Attila\AppData\Local\Programs\MiKTeX\tex\latex\fancyhdr\fancyhdr.sty
INPUT C:\Users\Attila\AppData\Local\Programs\MiKTeX\tex\latex\fancyhdr\fancyhdr.sty
INPUT C:\Users\Attila\AppData\Local\Programs\MiKTeX\tex\latex\fancyhdr\fancyhdr.sty
INPUT C:\Users\Attila\AppData\Local\Programs\MiKTeX\tex\latex\fancyhdr\fancyhdr.sty
INPUT C:\Users\Attila\AppData\Local\Programs\MiKTeX\tex\latex\fancyhdr\fancyhdr.sty
INPUT C:\Users\Attila\AppData\Local\Programs\MiKTeX\tex\latex\fancyhdr\fancyhdr.sty
INPUT C:\Users\Attila\AppData\Local\Programs\MiKTeX\tex\latex\amsmath\amstext.sty
INPUT C:\Users\Attila\AppData\Local\Programs\MiKTeX\tex\latex\base\textcomp.sty
INPUT C:\Users\Attila\AppData\Local\Programs\MiKTeX\tex\latex\base\textcomp.sty
INPUT C:\Users\Attila\AppData\Local\Programs\MiKTeX\tex\latex\base\textcomp.sty
INPUT C:\Users\Attila\AppData\Local\Programs\MiKTeX\tex\latex\base\textcomp.sty
INPUT C:\Users\Attila\AppData\Local\Programs\MiKTeX\tex\latex\base\textcomp.sty
INPUT C:\Users\Attila\AppData\Local\Programs\MiKTeX\tex\latex\base\textcomp.sty
INPUT C:\Users\Attila\AppData\Local\Programs\MiKTeX\tex\latex\base\textcomp.sty
INPUT C:\Users\Attila\AppData\Local\Programs\MiKTeX\tex\latex\base\textcomp.sty
INPUT C:\Users\Attila\AppData\Local\Programs\MiKTeX\tex\latex\base\textcomp.sty
INPUT C:\Users\Attila\AppData\Local\Programs\MiKTeX\tex\latex\base\textcomp.sty
INPUT C:\Users\Attila\AppData\Local\Programs\MiKTeX\tex\latex\base\textcomp.sty
INPUT C:\Users\Attila\AppData\Local\Programs\MiKTeX\tex\latex\titlesec\titlesec.sty
INPUT C:\Users\Attila\AppData\Local\Programs\MiKTeX\tex\latex\titlesec\titlesec.sty
INPUT C:\Users\Attila\AppData\Local\Programs\MiKTeX\tex\latex\titlesec\titlesec.sty
INPUT C:\Users\Attila\AppData\Local\Programs\MiKTeX\tex\latex\titlesec\titlesec.sty
INPUT C:\Users\Attila\AppData\Local\Programs\MiKTeX\tex\latex\titlesec\titlesec.sty
INPUT C:\Users\Attila\AppData\Local\Programs\MiKTeX\tex\latex\titlesec\titlesec.sty
INPUT C:\Users\Attila\AppData\Local\Programs\MiKTeX\tex\latex\titlesec\titlesec.sty
INPUT C:\Users\Attila\AppData\Local\Programs\MiKTeX\tex\latex\titlesec\titlesec.sty
INPUT C:\Users\Attila\AppData\Local\Programs\MiKTeX\tex\latex\titlesec\titlesec.sty
INPUT C:\Users\Attila\AppData\Local\Programs\MiKTeX\tex\latex\titlesec\titlesec.sty
INPUT C:\Users\Attila\AppData\Local\Programs\MiKTeX\tex\latex\titlesec\titlesec.sty
INPUT C:\Users\Attila\AppData\Local\Programs\MiKTeX\tex\latex\tabulary\tabulary.sty
INPUT C:\Users\Attila\AppData\Local\Programs\MiKTeX\tex\latex\tabulary\tabulary.sty
INPUT C:\Users\Attila\AppData\Local\Programs\MiKTeX\tex\latex\tabulary\tabulary.sty
INPUT C:\Users\Attila\AppData\Local\Programs\MiKTeX\tex\latex\tabulary\tabulary.sty
INPUT C:\Users\Attila\AppData\Local\Programs\MiKTeX\tex\latex\tabulary\tabulary.sty
INPUT C:\Users\Attila\AppData\Local\Programs\MiKTeX\tex\latex\tabulary\tabulary.sty
INPUT C:\Users\Attila\AppData\Local\Programs\MiKTeX\tex\latex\tabulary\tabulary.sty
INPUT C:\Users\Attila\AppData\Local\Programs\MiKTeX\tex\latex\tabulary\tabulary.sty
INPUT C:\Users\Attila\AppData\Local\Programs\MiKTeX\tex\latex\tabulary\tabulary.sty
INPUT C:\Users\Attila\AppData\Local\Programs\MiKTeX\tex\latex\tabulary\tabulary.sty
INPUT C:\Users\Attila\AppData\Local\Programs\MiKTeX\tex\latex\tabulary\tabulary.sty
INPUT C:\Users\Attila\AppData\Local\Programs\MiKTeX\tex\latex\latex-tools\array.sty
INPUT C:\Users\Attila\AppData\Local\Programs\MiKTeX\tex\latex\latex-tools\array.sty
INPUT C:\Users\Attila\AppData\Local\Programs\MiKTeX\tex\latex\latex-tools\array.sty
INPUT C:\Users\Attila\AppData\Local\Programs\MiKTeX\tex\latex\latex-tools\array.sty
INPUT C:\Users\Attila\AppData\Local\Programs\MiKTeX\tex\latex\latex-tools\array.sty
INPUT C:\Users\Attila\AppData\Local\Programs\MiKTeX\tex\latex\latex-tools\array.sty
INPUT C:\Users\Attila\AppData\Local\Programs\MiKTeX\tex\latex\latex-tools\array.sty
INPUT C:\Users\Attila\AppData\Local\Programs\MiKTeX\tex\latex\latex-tools\array.sty
INPUT C:\Users\Attila\AppData\Local\Programs\MiKTeX\tex\latex\latex-tools\array.sty
INPUT C:\Users\Attila\AppData\Local\Programs\MiKTeX\tex\latex\latex-tools\array.sty
INPUT C:\Users\Attila\AppData\Local\Programs\MiKTeX\tex\latex\latex-tools\array.sty
INPUT C:\Users\Attila\AppData\Local\Programs\MiKTeX\tex\latex\latex-tools\longtable.sty
INPUT C:\Users\Attila\AppData\Local\Programs\MiKTeX\tex\latex\latex-tools\longtable.sty
INPUT C:\Users\Attila\AppData\Local\Programs\MiKTeX\tex\latex\latex-tools\longtable.sty
INPUT C:\Users\Attila\AppData\Local\Programs\MiKTeX\tex\latex\latex-tools\longtable.sty
INPUT C:\Users\Attila\AppData\Local\Programs\MiKTeX\tex\latex\latex-tools\longtable.sty
INPUT C:\Users\Attila\AppData\Local\Programs\MiKTeX\tex\latex\latex-tools\longtable.sty
INPUT C:\Users\Attila\AppData\Local\Programs\MiKTeX\tex\latex\latex-tools\longtable.sty
INPUT C:\Users\Attila\AppData\Local\Programs\MiKTeX\tex\latex\latex-tools\longtable.sty
INPUT C:\Users\Attila\AppData\Local\Programs\MiKTeX\tex\latex\latex-tools\longtable.sty
INPUT C:\Users\Attila\AppData\Local\Programs\MiKTeX\tex\latex\latex-tools\longtable.sty
INPUT C:\Users\Attila\AppData\Local\Programs\MiKTeX\tex\latex\latex-tools\longtable.sty
INPUT C:\Users\Attila\AppData\Local\Programs\MiKTeX\tex\latex\varwidth\varwidth.sty
INPUT C:\Users\Attila\AppData\Local\Programs\MiKTeX\tex\latex\varwidth\varwidth.sty
INPUT C:\Users\Attila\AppData\Local\Programs\MiKTeX\tex\latex\varwidth\varwidth.sty
INPUT C:\Users\Attila\AppData\Local\Programs\MiKTeX\tex\latex\varwidth\varwidth.sty
INPUT C:\Users\Attila\AppData\Local\Programs\MiKTeX\tex\latex\varwidth\varwidth.sty
INPUT C:\Users\Attila\AppData\Local\Programs\MiKTeX\tex\latex\varwidth\varwidth.sty
INPUT C:\Users\Attila\AppData\Local\Programs\MiKTeX\tex\latex\varwidth\varwidth.sty
INPUT C:\Users\Attila\AppData\Local\Programs\MiKTeX\tex\latex\varwidth\varwidth.sty
INPUT C:\Users\Attila\AppData\Local\Programs\MiKTeX\tex\latex\varwidth\varwidth.sty
INPUT C:\Users\Attila\AppData\Local\Programs\MiKTeX\tex\latex\varwidth\varwidth.sty
INPUT C:\Users\Attila\AppData\Local\Programs\MiKTeX\tex\latex\varwidth\varwidth.sty
INPUT .\sphinxmulticell.sty
INPUT .\sphinxmulticell.sty
INPUT sphinxmulticell.sty
INPUT .\sphinxmulticell.sty
INPUT .\sphinxmulticell.sty
INPUT .\sphinxmulticell.sty
INPUT .\sphinxmulticell.sty
INPUT .\sphinxmulticell.sty
INPUT sphinxmulticell.sty
INPUT .\sphinxmulticell.sty
INPUT sphinxmulticell.sty
INPUT C:\Users\Attila\AppData\Local\Programs\MiKTeX\tex\latex\base\makeidx.sty
INPUT C:\Users\Attila\AppData\Local\Programs\MiKTeX\tex\latex\base\makeidx.sty
INPUT C:\Users\Attila\AppData\Local\Programs\MiKTeX\tex\latex\base\makeidx.sty
INPUT C:\Users\Attila\AppData\Local\Programs\MiKTeX\tex\latex\base\makeidx.sty
INPUT C:\Users\Attila\AppData\Local\Programs\MiKTeX\tex\latex\base\makeidx.sty
INPUT C:\Users\Attila\AppData\Local\Programs\MiKTeX\tex\latex\base\makeidx.sty
INPUT C:\Users\Attila\AppData\Local\Programs\MiKTeX\tex\latex\base\makeidx.sty
INPUT C:\Users\Attila\AppData\Local\Programs\MiKTeX\tex\latex\base\makeidx.sty
INPUT C:\Users\Attila\AppData\Local\Programs\MiKTeX\tex\latex\base\makeidx.sty
INPUT C:\Users\Attila\AppData\Local\Programs\MiKTeX\tex\latex\base\makeidx.sty
INPUT C:\Users\Attila\AppData\Local\Programs\MiKTeX\tex\latex\base\makeidx.sty
INPUT C:\Users\Attila\AppData\Local\Programs\MiKTeX\tex\latex\framed\framed.sty
INPUT C:\Users\Attila\AppData\Local\Programs\MiKTeX\tex\latex\framed\framed.sty
INPUT C:\Users\Attila\AppData\Local\Programs\MiKTeX\tex\latex\framed\framed.sty
INPUT C:\Users\Attila\AppData\Local\Programs\MiKTeX\tex\latex\framed\framed.sty
INPUT C:\Users\Attila\AppData\Local\Programs\MiKTeX\tex\latex\framed\framed.sty
INPUT C:\Users\Attila\AppData\Local\Programs\MiKTeX\tex\latex\framed\framed.sty
INPUT C:\Users\Attila\AppData\Local\Programs\MiKTeX\tex\latex\framed\framed.sty
INPUT C:\Users\Attila\AppData\Local\Programs\MiKTeX\tex\latex\framed\framed.sty
INPUT C:\Users\Attila\AppData\Local\Programs\MiKTeX\tex\latex\framed\framed.sty
INPUT C:\Users\Attila\AppData\Local\Programs\MiKTeX\tex\latex\framed\framed.sty
INPUT C:\Users\Attila\AppData\Local\Programs\MiKTeX\tex\latex\framed\framed.sty
INPUT C:\Users\Attila\AppData\Local\Programs\MiKTeX\tex\latex\xcolor\xcolor.sty
INPUT C:\Users\Attila\AppData\Local\Programs\MiKTeX\tex\latex\xcolor\xcolor.sty
INPUT C:\Users\Attila\AppData\Local\Programs\MiKTeX\tex\latex\xcolor\xcolor.sty
INPUT C:\Users\Attila\AppData\Local\Programs\MiKTeX\tex\latex\xcolor\xcolor.sty
INPUT C:\Users\Attila\AppData\Local\Programs\MiKTeX\tex\latex\xcolor\xcolor.sty
INPUT C:\Users\Attila\AppData\Local\Programs\MiKTeX\tex\latex\xcolor\xcolor.sty
INPUT C:\Users\Attila\AppData\Local\Programs\MiKTeX\tex\latex\xcolor\xcolor.sty
INPUT C:\Users\Attila\AppData\Local\Programs\MiKTeX\tex\latex\xcolor\xcolor.sty
INPUT C:\Users\Attila\AppData\Local\Programs\MiKTeX\tex\latex\xcolor\xcolor.sty
INPUT C:\Users\Attila\AppData\Local\Programs\MiKTeX\tex\latex\xcolor\xcolor.sty
INPUT C:\Users\Attila\AppData\Local\Programs\MiKTeX\tex\latex\xcolor\xcolor.sty
INPUT C:\Users\Attila\AppData\Local\Programs\MiKTeX\tex\latex\xcolor\xcolor.sty
INPUT C:\Users\Attila\AppData\Local\Programs\MiKTeX\tex\latex\xcolor\xcolor.sty
INPUT C:\Users\Attila\AppData\Local\Programs\MiKTeX\tex\latex\graphics-cfg\color.cfg
INPUT C:\Users\Attila\AppData\Local\Programs\MiKTeX\tex\latex\graphics-cfg\color.cfg
INPUT C:\Users\Attila\AppData\Local\Programs\MiKTeX\tex\latex\graphics-cfg\color.cfg
INPUT C:\Users\Attila\AppData\Local\Programs\MiKTeX\tex\latex\graphics-cfg\color.cfg
INPUT C:\Users\Attila\AppData\Local\Programs\MiKTeX\tex\latex\fancyvrb\fancyvrb.sty
INPUT C:\Users\Attila\AppData\Local\Programs\MiKTeX\tex\latex\fancyvrb\fancyvrb.sty
INPUT C:\Users\Attila\AppData\Local\Programs\MiKTeX\tex\latex\fancyvrb\fancyvrb.sty
INPUT C:\Users\Attila\AppData\Local\Programs\MiKTeX\tex\latex\fancyvrb\fancyvrb.sty
INPUT C:\Users\Attila\AppData\Local\Programs\MiKTeX\tex\latex\fancyvrb\fancyvrb.sty
INPUT C:\Users\Attila\AppData\Local\Programs\MiKTeX\tex\latex\fancyvrb\fancyvrb.sty
INPUT C:\Users\Attila\AppData\Local\Programs\MiKTeX\tex\latex\fancyvrb\fancyvrb.sty
INPUT C:\Users\Attila\AppData\Local\Programs\MiKTeX\tex\latex\fancyvrb\fancyvrb.sty
INPUT C:\Users\Attila\AppData\Local\Programs\MiKTeX\tex\latex\fancyvrb\fancyvrb.sty
INPUT C:\Users\Attila\AppData\Local\Programs\MiKTeX\tex\latex\fancyvrb\fancyvrb.sty
INPUT C:\Users\Attila\AppData\Local\Programs\MiKTeX\tex\latex\fancyvrb\fancyvrb.sty
INPUT C:\Users\Attila\AppData\Local\Programs\MiKTeX\tex\latex\graphics\keyval.sty
INPUT .\footnotehyper-sphinx.sty
INPUT .\footnotehyper-sphinx.sty
INPUT footnotehyper-sphinx.sty
INPUT .\footnotehyper-sphinx.sty
INPUT .\footnotehyper-sphinx.sty
INPUT .\footnotehyper-sphinx.sty
INPUT .\footnotehyper-sphinx.sty
INPUT .\footnotehyper-sphinx.sty
INPUT footnotehyper-sphinx.sty
INPUT .\footnotehyper-sphinx.sty
INPUT footnotehyper-sphinx.sty
INPUT C:\Users\Attila\AppData\Local\Programs\MiKTeX\tex\latex\float\float.sty
INPUT C:\Users\Attila\AppData\Local\Programs\MiKTeX\tex\latex\float\float.sty
INPUT C:\Users\Attila\AppData\Local\Programs\MiKTeX\tex\latex\float\float.sty
INPUT C:\Users\Attila\AppData\Local\Programs\MiKTeX\tex\latex\float\float.sty
INPUT C:\Users\Attila\AppData\Local\Programs\MiKTeX\tex\latex\float\float.sty
INPUT C:\Users\Attila\AppData\Local\Programs\MiKTeX\tex\latex\float\float.sty
INPUT C:\Users\Attila\AppData\Local\Programs\MiKTeX\tex\latex\float\float.sty
INPUT C:\Users\Attila\AppData\Local\Programs\MiKTeX\tex\latex\float\float.sty
INPUT C:\Users\Attila\AppData\Local\Programs\MiKTeX\tex\latex\float\float.sty
INPUT C:\Users\Attila\AppData\Local\Programs\MiKTeX\tex\latex\float\float.sty
INPUT C:\Users\Attila\AppData\Local\Programs\MiKTeX\tex\latex\float\float.sty
INPUT C:\Users\Attila\AppData\Local\Programs\MiKTeX\tex\latex\wrapfig\wrapfig.sty
INPUT C:\Users\Attila\AppData\Local\Programs\MiKTeX\tex\latex\wrapfig\wrapfig.sty
INPUT C:\Users\Attila\AppData\Local\Programs\MiKTeX\tex\latex\wrapfig\wrapfig.sty
INPUT C:\Users\Attila\AppData\Local\Programs\MiKTeX\tex\latex\wrapfig\wrapfig.sty
INPUT C:\Users\Attila\AppData\Local\Programs\MiKTeX\tex\latex\wrapfig\wrapfig.sty
INPUT C:\Users\Attila\AppData\Local\Programs\MiKTeX\tex\latex\wrapfig\wrapfig.sty
INPUT C:\Users\Attila\AppData\Local\Programs\MiKTeX\tex\latex\wrapfig\wrapfig.sty
INPUT C:\Users\Attila\AppData\Local\Programs\MiKTeX\tex\latex\wrapfig\wrapfig.sty
INPUT C:\Users\Attila\AppData\Local\Programs\MiKTeX\tex\latex\wrapfig\wrapfig.sty
INPUT C:\Users\Attila\AppData\Local\Programs\MiKTeX\tex\latex\wrapfig\wrapfig.sty
INPUT C:\Users\Attila\AppData\Local\Programs\MiKTeX\tex\latex\wrapfig\wrapfig.sty
INPUT C:\Users\Attila\AppData\Local\Programs\MiKTeX\tex\latex\parskip\parskip-2001-04-09.sty
INPUT C:\Users\Attila\AppData\Local\Programs\MiKTeX\tex\latex\parskip\parskip-2001-04-09.sty
INPUT C:\Users\Attila\AppData\Local\Programs\MiKTeX\tex\latex\parskip\parskip.sty
INPUT C:\Users\Attila\AppData\Local\Programs\MiKTeX\tex\latex\parskip\parskip.sty
INPUT C:\Users\Attila\AppData\Local\Programs\MiKTeX\tex\latex\parskip\parskip.sty
INPUT C:\Users\Attila\AppData\Local\Programs\MiKTeX\tex\latex\parskip\parskip.sty
INPUT C:\Users\Attila\AppData\Local\Programs\MiKTeX\tex\latex\parskip\parskip.sty
INPUT C:\Users\Attila\AppData\Local\Programs\MiKTeX\tex\latex\parskip\parskip.sty
INPUT C:\Users\Attila\AppData\Local\Programs\MiKTeX\tex\latex\parskip\parskip.sty
INPUT C:\Users\Attila\AppData\Local\Programs\MiKTeX\tex\latex\parskip\parskip.sty
INPUT C:\Users\Attila\AppData\Local\Programs\MiKTeX\tex\latex\parskip\parskip.sty
INPUT C:\Users\Attila\AppData\Local\Programs\MiKTeX\tex\latex\parskip\parskip.sty
INPUT C:\Users\Attila\AppData\Local\Programs\MiKTeX\tex\latex\parskip\parskip.sty
INPUT C:\Users\Attila\AppData\Local\Programs\MiKTeX\tex\latex\parskip\parskip-2001-04-09.sty
INPUT C:\Users\Attila\AppData\Local\Programs\MiKTeX\tex\latex\base\alltt.sty
INPUT C:\Users\Attila\AppData\Local\Programs\MiKTeX\tex\latex\base\alltt.sty
INPUT C:\Users\Attila\AppData\Local\Programs\MiKTeX\tex\latex\base\alltt.sty
INPUT C:\Users\Attila\AppData\Local\Programs\MiKTeX\tex\latex\base\alltt.sty
INPUT C:\Users\Attila\AppData\Local\Programs\MiKTeX\tex\latex\base\alltt.sty
INPUT C:\Users\Attila\AppData\Local\Programs\MiKTeX\tex\latex\base\alltt.sty
INPUT C:\Users\Attila\AppData\Local\Programs\MiKTeX\tex\latex\base\alltt.sty
INPUT C:\Users\Attila\AppData\Local\Programs\MiKTeX\tex\latex\base\alltt.sty
INPUT C:\Users\Attila\AppData\Local\Programs\MiKTeX\tex\latex\base\alltt.sty
INPUT C:\Users\Attila\AppData\Local\Programs\MiKTeX\tex\latex\base\alltt.sty
INPUT C:\Users\Attila\AppData\Local\Programs\MiKTeX\tex\latex\base\alltt.sty
INPUT C:\Users\Attila\AppData\Local\Programs\MiKTeX\tex\latex\upquote\upquote.sty
INPUT C:\Users\Attila\AppData\Local\Programs\MiKTeX\tex\latex\upquote\upquote.sty
INPUT C:\Users\Attila\AppData\Local\Programs\MiKTeX\tex\latex\upquote\upquote.sty
INPUT C:\Users\Attila\AppData\Local\Programs\MiKTeX\tex\latex\upquote\upquote.sty
INPUT C:\Users\Attila\AppData\Local\Programs\MiKTeX\tex\latex\upquote\upquote.sty
INPUT C:\Users\Attila\AppData\Local\Programs\MiKTeX\tex\latex\upquote\upquote.sty
INPUT C:\Users\Attila\AppData\Local\Programs\MiKTeX\tex\latex\upquote\upquote.sty
INPUT C:\Users\Attila\AppData\Local\Programs\MiKTeX\tex\latex\upquote\upquote.sty
INPUT C:\Users\Attila\AppData\Local\Programs\MiKTeX\tex\latex\upquote\upquote.sty
INPUT C:\Users\Attila\AppData\Local\Programs\MiKTeX\tex\latex\upquote\upquote.sty
INPUT C:\Users\Attila\AppData\Local\Programs\MiKTeX\tex\latex\upquote\upquote.sty
INPUT C:\Users\Attila\AppData\Local\Programs\MiKTeX\tex\latex\base\textcomp.sty
INPUT C:\Users\Attila\AppData\Local\Programs\MiKTeX\tex\latex\capt-of\capt-of.sty
INPUT C:\Users\Attila\AppData\Local\Programs\MiKTeX\tex\latex\capt-of\capt-of.sty
INPUT C:\Users\Attila\AppData\Local\Programs\MiKTeX\tex\latex\capt-of\capt-of.sty
INPUT C:\Users\Attila\AppData\Local\Programs\MiKTeX\tex\latex\capt-of\capt-of.sty
INPUT C:\Users\Attila\AppData\Local\Programs\MiKTeX\tex\latex\capt-of\capt-of.sty
INPUT C:\Users\Attila\AppData\Local\Programs\MiKTeX\tex\latex\capt-of\capt-of.sty
INPUT C:\Users\Attila\AppData\Local\Programs\MiKTeX\tex\latex\capt-of\capt-of.sty
INPUT C:\Users\Attila\AppData\Local\Programs\MiKTeX\tex\latex\capt-of\capt-of.sty
INPUT C:\Users\Attila\AppData\Local\Programs\MiKTeX\tex\latex\capt-of\capt-of.sty
INPUT C:\Users\Attila\AppData\Local\Programs\MiKTeX\tex\latex\capt-of\capt-of.sty
INPUT C:\Users\Attila\AppData\Local\Programs\MiKTeX\tex\latex\capt-of\capt-of.sty
INPUT C:\Users\Attila\AppData\Local\Programs\MiKTeX\tex\latex\needspace\needspace.sty
INPUT C:\Users\Attila\AppData\Local\Programs\MiKTeX\tex\latex\needspace\needspace.sty
INPUT C:\Users\Attila\AppData\Local\Programs\MiKTeX\tex\latex\needspace\needspace.sty
INPUT C:\Users\Attila\AppData\Local\Programs\MiKTeX\tex\latex\needspace\needspace.sty
INPUT C:\Users\Attila\AppData\Local\Programs\MiKTeX\tex\latex\needspace\needspace.sty
INPUT C:\Users\Attila\AppData\Local\Programs\MiKTeX\tex\latex\needspace\needspace.sty
INPUT C:\Users\Attila\AppData\Local\Programs\MiKTeX\tex\latex\needspace\needspace.sty
INPUT C:\Users\Attila\AppData\Local\Programs\MiKTeX\tex\latex\needspace\needspace.sty
INPUT C:\Users\Attila\AppData\Local\Programs\MiKTeX\tex\latex\needspace\needspace.sty
INPUT C:\Users\Attila\AppData\Local\Programs\MiKTeX\tex\latex\needspace\needspace.sty
INPUT C:\Users\Attila\AppData\Local\Programs\MiKTeX\tex\latex\needspace\needspace.sty
INPUT C:\Users\Attila\AppData\Local\Programs\MiKTeX\tex\latex\hyperref\hyperref.sty
INPUT C:\Users\Attila\AppData\Local\Programs\MiKTeX\tex\latex\hyperref\hyperref.sty
INPUT C:\Users\Attila\AppData\Local\Programs\MiKTeX\tex\latex\hyperref\hyperref.sty
INPUT C:\Users\Attila\AppData\Local\Programs\MiKTeX\tex\latex\hyperref\hyperref.sty
INPUT .\sphinxhighlight.sty
INPUT .\sphinxhighlight.sty
INPUT sphinxhighlight.sty
INPUT .\sphinxhighlight.sty
INPUT .\sphinxhighlight.sty
INPUT .\sphinxhighlight.sty
INPUT .\sphinxhighlight.sty
INPUT .\sphinxhighlight.sty
INPUT sphinxhighlight.sty
INPUT .\sphinxhighlight.sty
INPUT sphinxhighlight.sty
INPUT C:\Users\Attila\AppData\Local\Programs\MiKTeX\tex\latex\kvoptions\kvoptions.sty
INPUT C:\Users\Attila\AppData\Local\Programs\MiKTeX\tex\latex\kvoptions\kvoptions.sty
INPUT C:\Users\Attila\AppData\Local\Programs\MiKTeX\tex\latex\kvoptions\kvoptions.sty
INPUT C:\Users\Attila\AppData\Local\Programs\MiKTeX\tex\latex\kvoptions\kvoptions.sty
INPUT C:\Users\Attila\AppData\Local\Programs\MiKTeX\tex\latex\kvoptions\kvoptions.sty
INPUT C:\Users\Attila\AppData\Local\Programs\MiKTeX\tex\latex\kvoptions\kvoptions.sty
INPUT C:\Users\Attila\AppData\Local\Programs\MiKTeX\tex\latex\kvoptions\kvoptions.sty
INPUT C:\Users\Attila\AppData\Local\Programs\MiKTeX\tex\latex\kvoptions\kvoptions.sty
INPUT C:\Users\Attila\AppData\Local\Programs\MiKTeX\tex\latex\kvoptions\kvoptions.sty
INPUT C:\Users\Attila\AppData\Local\Programs\MiKTeX\tex\latex\kvoptions\kvoptions.sty
INPUT C:\Users\Attila\AppData\Local\Programs\MiKTeX\tex\latex\kvoptions\kvoptions.sty
INPUT C:\Users\Attila\AppData\Local\Programs\MiKTeX\tex\generic\ltxcmds\ltxcmds.sty
INPUT C:\Users\Attila\AppData\Local\Programs\MiKTeX\tex\generic\kvsetkeys\kvsetkeys.sty
INPUT C:\Users\Attila\AppData\Local\Programs\MiKTeX\tex\generic\kvsetkeys\kvsetkeys.sty
INPUT C:\Users\Attila\AppData\Local\Programs\MiKTeX\tex\generic\kvsetkeys\kvsetkeys.sty
INPUT C:\Users\Attila\AppData\Local\Programs\MiKTeX\tex\generic\kvsetkeys\kvsetkeys.sty
INPUT C:\Users\Attila\AppData\Local\Programs\MiKTeX\tex\generic\kvsetkeys\kvsetkeys.sty
INPUT C:\Users\Attila\AppData\Local\Programs\MiKTeX\tex\generic\kvsetkeys\kvsetkeys.sty
INPUT C:\Users\Attila\AppData\Local\Programs\MiKTeX\tex\generic\kvsetkeys\kvsetkeys.sty
INPUT C:\Users\Attila\AppData\Local\Programs\MiKTeX\tex\generic\kvsetkeys\kvsetkeys.sty
INPUT C:\Users\Attila\AppData\Local\Programs\MiKTeX\tex\generic\kvsetkeys\kvsetkeys.sty
INPUT C:\Users\Attila\AppData\Local\Programs\MiKTeX\tex\generic\kvsetkeys\kvsetkeys.sty
INPUT C:\Users\Attila\AppData\Local\Programs\MiKTeX\tex\generic\kvsetkeys\kvsetkeys.sty
INPUT C:\Users\Attila\AppData\Local\Programs\MiKTeX\tex\latex\geometry\geometry.sty
INPUT C:\Users\Attila\AppData\Local\Programs\MiKTeX\tex\latex\geometry\geometry.sty
INPUT C:\Users\Attila\AppData\Local\Programs\MiKTeX\tex\latex\geometry\geometry.sty
INPUT C:\Users\Attila\AppData\Local\Programs\MiKTeX\tex\latex\geometry\geometry.sty
INPUT C:\Users\Attila\AppData\Local\Programs\MiKTeX\tex\latex\geometry\geometry.sty
INPUT C:\Users\Attila\AppData\Local\Programs\MiKTeX\tex\latex\geometry\geometry.sty
INPUT C:\Users\Attila\AppData\Local\Programs\MiKTeX\tex\latex\geometry\geometry.sty
INPUT C:\Users\Attila\AppData\Local\Programs\MiKTeX\tex\latex\geometry\geometry.sty
INPUT C:\Users\Attila\AppData\Local\Programs\MiKTeX\tex\latex\geometry\geometry.sty
INPUT C:\Users\Attila\AppData\Local\Programs\MiKTeX\tex\latex\geometry\geometry.sty
INPUT C:\Users\Attila\AppData\Local\Programs\MiKTeX\tex\latex\geometry\geometry.sty
INPUT C:\Users\Attila\AppData\Local\Programs\MiKTeX\tex\latex\geometry\geometry.sty
INPUT C:\Users\Attila\AppData\Local\Programs\MiKTeX\tex\latex\geometry\geometry.sty
INPUT C:\Users\Attila\AppData\Local\Programs\MiKTeX\tex\latex\graphics\keyval.sty
INPUT C:\Users\Attila\AppData\Local\Programs\MiKTeX\tex\generic\iftex\ifvtex.sty
INPUT C:\Users\Attila\AppData\Local\Programs\MiKTeX\tex\generic\iftex\ifvtex.sty
INPUT C:\Users\Attila\AppData\Local\Programs\MiKTeX\tex\generic\iftex\ifvtex.sty
INPUT C:\Users\Attila\AppData\Local\Programs\MiKTeX\tex\generic\iftex\ifvtex.sty
INPUT C:\Users\Attila\AppData\Local\Programs\MiKTeX\tex\generic\iftex\ifvtex.sty
INPUT C:\Users\Attila\AppData\Local\Programs\MiKTeX\tex\generic\iftex\ifvtex.sty
INPUT C:\Users\Attila\AppData\Local\Programs\MiKTeX\tex\generic\iftex\ifvtex.sty
INPUT C:\Users\Attila\AppData\Local\Programs\MiKTeX\tex\generic\iftex\ifvtex.sty
INPUT C:\Users\Attila\AppData\Local\Programs\MiKTeX\tex\generic\iftex\ifvtex.sty
INPUT C:\Users\Attila\AppData\Local\Programs\MiKTeX\tex\generic\iftex\ifvtex.sty
INPUT C:\Users\Attila\AppData\Local\Programs\MiKTeX\tex\generic\iftex\ifvtex.sty
INPUT C:\Users\Attila\AppData\Local\Programs\MiKTeX\tex\generic\iftex\iftex.sty
INPUT C:\Users\Attila\AppData\Local\Programs\MiKTeX\tex\generic\iftex\iftex.sty
INPUT C:\Users\Attila\AppData\Local\Programs\MiKTeX\tex\generic\iftex\iftex.sty
INPUT C:\Users\Attila\AppData\Local\Programs\MiKTeX\tex\generic\iftex\iftex.sty
INPUT C:\Users\Attila\AppData\Local\Programs\MiKTeX\tex\generic\iftex\iftex.sty
INPUT C:\Users\Attila\AppData\Local\Programs\MiKTeX\tex\generic\iftex\iftex.sty
INPUT C:\Users\Attila\AppData\Local\Programs\MiKTeX\tex\generic\iftex\iftex.sty
INPUT C:\Users\Attila\AppData\Local\Programs\MiKTeX\tex\generic\iftex\iftex.sty
INPUT C:\Users\Attila\AppData\Local\Programs\MiKTeX\tex\generic\iftex\iftex.sty
INPUT C:\Users\Attila\AppData\Local\Programs\MiKTeX\tex\generic\iftex\iftex.sty
INPUT C:\Users\Attila\AppData\Local\Programs\MiKTeX\tex\generic\iftex\iftex.sty
INPUT C:\Users\Attila\AppData\Local\Programs\MiKTeX\tex\latex\geometry\geometry.cfg
INPUT C:\Users\Attila\AppData\Local\Programs\MiKTeX\tex\latex\geometry\geometry.cfg
INPUT C:\Users\Attila\AppData\Local\Programs\MiKTeX\tex\latex\geometry\geometry.cfg
INPUT C:\Users\Attila\AppData\Local\Programs\MiKTeX\tex\latex\geometry\geometry.cfg
INPUT C:\Users\Attila\AppData\Local\Programs\MiKTeX\tex\latex\hyperref\hyperref.sty
INPUT C:\Users\Attila\AppData\Local\Programs\MiKTeX\tex\latex\hyperref\hyperref.sty
INPUT C:\Users\Attila\AppData\Local\Programs\MiKTeX\tex\latex\hyperref\hyperref.sty
INPUT C:\Users\Attila\AppData\Local\Programs\MiKTeX\tex\latex\hyperref\hyperref.sty
INPUT C:\Users\Attila\AppData\Local\Programs\MiKTeX\tex\latex\hyperref\hyperref.sty
INPUT C:\Users\Attila\AppData\Local\Programs\MiKTeX\tex\latex\hyperref\hyperref.sty
INPUT C:\Users\Attila\AppData\Local\Programs\MiKTeX\tex\latex\hyperref\hyperref.sty
INPUT C:\Users\Attila\AppData\Local\Programs\MiKTeX\tex\latex\hyperref\hyperref.sty
INPUT C:\Users\Attila\AppData\Local\Programs\MiKTeX\tex\latex\hyperref\hyperref.sty
INPUT C:\Users\Attila\AppData\Local\Programs\MiKTeX\tex\latex\hyperref\hyperref.sty
INPUT C:\Users\Attila\AppData\Local\Programs\MiKTeX\tex\latex\hyperref\hyperref.sty
INPUT C:\Users\Attila\AppData\Local\Programs\MiKTeX\tex\generic\ltxcmds\ltxcmds.sty
INPUT C:\Users\Attila\AppData\Local\Programs\MiKTeX\tex\generic\iftex\iftex.sty
INPUT C:\Users\Attila\AppData\Local\Programs\MiKTeX\tex\generic\pdftexcmds\pdftexcmds.sty
INPUT C:\Users\Attila\AppData\Local\Programs\MiKTeX\tex\generic\pdftexcmds\pdftexcmds.sty
INPUT C:\Users\Attila\AppData\Local\Programs\MiKTeX\tex\generic\pdftexcmds\pdftexcmds.sty
INPUT C:\Users\Attila\AppData\Local\Programs\MiKTeX\tex\generic\pdftexcmds\pdftexcmds.sty
INPUT C:\Users\Attila\AppData\Local\Programs\MiKTeX\tex\generic\pdftexcmds\pdftexcmds.sty
INPUT C:\Users\Attila\AppData\Local\Programs\MiKTeX\tex\generic\pdftexcmds\pdftexcmds.sty
INPUT C:\Users\Attila\AppData\Local\Programs\MiKTeX\tex\generic\pdftexcmds\pdftexcmds.sty
INPUT C:\Users\Attila\AppData\Local\Programs\MiKTeX\tex\generic\pdftexcmds\pdftexcmds.sty
INPUT C:\Users\Attila\AppData\Local\Programs\MiKTeX\tex\generic\pdftexcmds\pdftexcmds.sty
INPUT C:\Users\Attila\AppData\Local\Programs\MiKTeX\tex\generic\pdftexcmds\pdftexcmds.sty
INPUT C:\Users\Attila\AppData\Local\Programs\MiKTeX\tex\generic\pdftexcmds\pdftexcmds.sty
INPUT C:\Users\Attila\AppData\Local\Programs\MiKTeX\tex\generic\infwarerr\infwarerr.sty
INPUT C:\Users\Attila\AppData\Local\Programs\MiKTeX\tex\generic\infwarerr\infwarerr.sty
INPUT C:\Users\Attila\AppData\Local\Programs\MiKTeX\tex\generic\infwarerr\infwarerr.sty
INPUT C:\Users\Attila\AppData\Local\Programs\MiKTeX\tex\generic\infwarerr\infwarerr.sty
INPUT C:\Users\Attila\AppData\Local\Programs\MiKTeX\tex\generic\infwarerr\infwarerr.sty
INPUT C:\Users\Attila\AppData\Local\Programs\MiKTeX\tex\generic\infwarerr\infwarerr.sty
INPUT C:\Users\Attila\AppData\Local\Programs\MiKTeX\tex\generic\infwarerr\infwarerr.sty
INPUT C:\Users\Attila\AppData\Local\Programs\MiKTeX\tex\generic\infwarerr\infwarerr.sty
INPUT C:\Users\Attila\AppData\Local\Programs\MiKTeX\tex\generic\infwarerr\infwarerr.sty
INPUT C:\Users\Attila\AppData\Local\Programs\MiKTeX\tex\generic\infwarerr\infwarerr.sty
INPUT C:\Users\Attila\AppData\Local\Programs\MiKTeX\tex\generic\infwarerr\infwarerr.sty
INPUT C:\Users\Attila\AppData\Local\Programs\MiKTeX\tex\generic\iftex\iftex.sty
INPUT C:\Users\Attila\AppData\Local\Programs\MiKTeX\tex\generic\ltxcmds\ltxcmds.sty
INPUT C:\Users\Attila\AppData\Local\Programs\MiKTeX\tex\generic\infwarerr\infwarerr.sty
INPUT C:\Users\Attila\AppData\Local\Programs\MiKTeX\tex\latex\graphics\keyval.sty
INPUT C:\Users\Attila\AppData\Local\Programs\MiKTeX\tex\generic\kvsetkeys\kvsetkeys.sty
INPUT C:\Users\Attila\AppData\Local\Programs\MiKTeX\tex\generic\kvdefinekeys\kvdefinekeys.sty
INPUT C:\Users\Attila\AppData\Local\Programs\MiKTeX\tex\generic\kvdefinekeys\kvdefinekeys.sty
INPUT C:\Users\Attila\AppData\Local\Programs\MiKTeX\tex\generic\kvdefinekeys\kvdefinekeys.sty
INPUT C:\Users\Attila\AppData\Local\Programs\MiKTeX\tex\generic\kvdefinekeys\kvdefinekeys.sty
INPUT C:\Users\Attila\AppData\Local\Programs\MiKTeX\tex\generic\kvdefinekeys\kvdefinekeys.sty
INPUT C:\Users\Attila\AppData\Local\Programs\MiKTeX\tex\generic\kvdefinekeys\kvdefinekeys.sty
INPUT C:\Users\Attila\AppData\Local\Programs\MiKTeX\tex\generic\kvdefinekeys\kvdefinekeys.sty
INPUT C:\Users\Attila\AppData\Local\Programs\MiKTeX\tex\generic\kvdefinekeys\kvdefinekeys.sty
INPUT C:\Users\Attila\AppData\Local\Programs\MiKTeX\tex\generic\kvdefinekeys\kvdefinekeys.sty
INPUT C:\Users\Attila\AppData\Local\Programs\MiKTeX\tex\generic\kvdefinekeys\kvdefinekeys.sty
INPUT C:\Users\Attila\AppData\Local\Programs\MiKTeX\tex\generic\kvdefinekeys\kvdefinekeys.sty
INPUT C:\Users\Attila\AppData\Local\Programs\MiKTeX\tex\generic\pdfescape\pdfescape.sty
INPUT C:\Users\Attila\AppData\Local\Programs\MiKTeX\tex\generic\pdfescape\pdfescape.sty
INPUT C:\Users\Attila\AppData\Local\Programs\MiKTeX\tex\generic\pdfescape\pdfescape.sty
INPUT C:\Users\Attila\AppData\Local\Programs\MiKTeX\tex\generic\pdfescape\pdfescape.sty
INPUT C:\Users\Attila\AppData\Local\Programs\MiKTeX\tex\generic\pdfescape\pdfescape.sty
INPUT C:\Users\Attila\AppData\Local\Programs\MiKTeX\tex\generic\pdfescape\pdfescape.sty
INPUT C:\Users\Attila\AppData\Local\Programs\MiKTeX\tex\generic\pdfescape\pdfescape.sty
INPUT C:\Users\Attila\AppData\Local\Programs\MiKTeX\tex\generic\pdfescape\pdfescape.sty
INPUT C:\Users\Attila\AppData\Local\Programs\MiKTeX\tex\generic\pdfescape\pdfescape.sty
INPUT C:\Users\Attila\AppData\Local\Programs\MiKTeX\tex\generic\pdfescape\pdfescape.sty
INPUT C:\Users\Attila\AppData\Local\Programs\MiKTeX\tex\generic\pdfescape\pdfescape.sty
INPUT C:\Users\Attila\AppData\Local\Programs\MiKTeX\tex\generic\ltxcmds\ltxcmds.sty
INPUT C:\Users\Attila\AppData\Local\Programs\MiKTeX\tex\generic\pdftexcmds\pdftexcmds.sty
INPUT C:\Users\Attila\AppData\Local\Programs\MiKTeX\tex\latex\hycolor\hycolor.sty
INPUT C:\Users\Attila\AppData\Local\Programs\MiKTeX\tex\latex\hycolor\hycolor.sty
INPUT C:\Users\Attila\AppData\Local\Programs\MiKTeX\tex\latex\hycolor\hycolor.sty
INPUT C:\Users\Attila\AppData\Local\Programs\MiKTeX\tex\latex\hycolor\hycolor.sty
INPUT C:\Users\Attila\AppData\Local\Programs\MiKTeX\tex\latex\hycolor\hycolor.sty
INPUT C:\Users\Attila\AppData\Local\Programs\MiKTeX\tex\latex\hycolor\hycolor.sty
INPUT C:\Users\Attila\AppData\Local\Programs\MiKTeX\tex\latex\hycolor\hycolor.sty
INPUT C:\Users\Attila\AppData\Local\Programs\MiKTeX\tex\latex\hycolor\hycolor.sty
INPUT C:\Users\Attila\AppData\Local\Programs\MiKTeX\tex\latex\hycolor\hycolor.sty
INPUT C:\Users\Attila\AppData\Local\Programs\MiKTeX\tex\latex\hycolor\hycolor.sty
INPUT C:\Users\Attila\AppData\Local\Programs\MiKTeX\tex\latex\hycolor\hycolor.sty
INPUT C:\Users\Attila\AppData\Local\Programs\MiKTeX\tex\latex\letltxmacro\letltxmacro.sty
INPUT C:\Users\Attila\AppData\Local\Programs\MiKTeX\tex\latex\letltxmacro\letltxmacro.sty
INPUT C:\Users\Attila\AppData\Local\Programs\MiKTeX\tex\latex\letltxmacro\letltxmacro.sty
INPUT C:\Users\Attila\AppData\Local\Programs\MiKTeX\tex\latex\letltxmacro\letltxmacro.sty
INPUT C:\Users\Attila\AppData\Local\Programs\MiKTeX\tex\latex\letltxmacro\letltxmacro.sty
INPUT C:\Users\Attila\AppData\Local\Programs\MiKTeX\tex\latex\letltxmacro\letltxmacro.sty
INPUT C:\Users\Attila\AppData\Local\Programs\MiKTeX\tex\latex\letltxmacro\letltxmacro.sty
INPUT C:\Users\Attila\AppData\Local\Programs\MiKTeX\tex\latex\letltxmacro\letltxmacro.sty
INPUT C:\Users\Attila\AppData\Local\Programs\MiKTeX\tex\latex\letltxmacro\letltxmacro.sty
INPUT C:\Users\Attila\AppData\Local\Programs\MiKTeX\tex\latex\letltxmacro\letltxmacro.sty
INPUT C:\Users\Attila\AppData\Local\Programs\MiKTeX\tex\latex\letltxmacro\letltxmacro.sty
INPUT C:\Users\Attila\AppData\Local\Programs\MiKTeX\tex\latex\auxhook\auxhook.sty
INPUT C:\Users\Attila\AppData\Local\Programs\MiKTeX\tex\latex\auxhook\auxhook.sty
INPUT C:\Users\Attila\AppData\Local\Programs\MiKTeX\tex\latex\auxhook\auxhook.sty
INPUT C:\Users\Attila\AppData\Local\Programs\MiKTeX\tex\latex\auxhook\auxhook.sty
INPUT C:\Users\Attila\AppData\Local\Programs\MiKTeX\tex\latex\auxhook\auxhook.sty
INPUT C:\Users\Attila\AppData\Local\Programs\MiKTeX\tex\latex\auxhook\auxhook.sty
INPUT C:\Users\Attila\AppData\Local\Programs\MiKTeX\tex\latex\auxhook\auxhook.sty
INPUT C:\Users\Attila\AppData\Local\Programs\MiKTeX\tex\latex\auxhook\auxhook.sty
INPUT C:\Users\Attila\AppData\Local\Programs\MiKTeX\tex\latex\auxhook\auxhook.sty
INPUT C:\Users\Attila\AppData\Local\Programs\MiKTeX\tex\latex\auxhook\auxhook.sty
INPUT C:\Users\Attila\AppData\Local\Programs\MiKTeX\tex\latex\auxhook\auxhook.sty
INPUT C:\Users\Attila\AppData\Local\Programs\MiKTeX\tex\latex\kvoptions\kvoptions.sty
INPUT C:\Users\Attila\AppData\Local\Programs\MiKTeX\tex\latex\hyperref\pd1enc.def
INPUT C:\Users\Attila\AppData\Local\Programs\MiKTeX\tex\latex\hyperref\pd1enc.def
INPUT C:\Users\Attila\AppData\Local\Programs\MiKTeX\tex\latex\hyperref\pd1enc.def
INPUT C:\Users\Attila\AppData\Local\Programs\MiKTeX\tex\latex\hyperref\pd1enc.def
INPUT C:\Users\Attila\AppData\Local\Programs\MiKTeX\tex\latex\hyperref\hyperref-langpatches.def
INPUT C:\Users\Attila\AppData\Local\Programs\MiKTeX\tex\latex\hyperref\hyperref-langpatches.def
INPUT C:\Users\Attila\AppData\Local\Programs\MiKTeX\tex\latex\hyperref\hyperref-langpatches.def
INPUT C:\Users\Attila\AppData\Local\Programs\MiKTeX\tex\latex\hyperref\hyperref-langpatches.def
INPUT C:\Users\Attila\AppData\Local\Programs\MiKTeX\tex\generic\intcalc\intcalc.sty
INPUT C:\Users\Attila\AppData\Local\Programs\MiKTeX\tex\generic\intcalc\intcalc.sty
INPUT C:\Users\Attila\AppData\Local\Programs\MiKTeX\tex\generic\intcalc\intcalc.sty
INPUT C:\Users\Attila\AppData\Local\Programs\MiKTeX\tex\generic\intcalc\intcalc.sty
INPUT C:\Users\Attila\AppData\Local\Programs\MiKTeX\tex\generic\intcalc\intcalc.sty
INPUT C:\Users\Attila\AppData\Local\Programs\MiKTeX\tex\generic\intcalc\intcalc.sty
INPUT C:\Users\Attila\AppData\Local\Programs\MiKTeX\tex\generic\intcalc\intcalc.sty
INPUT C:\Users\Attila\AppData\Local\Programs\MiKTeX\tex\generic\intcalc\intcalc.sty
INPUT C:\Users\Attila\AppData\Local\Programs\MiKTeX\tex\generic\intcalc\intcalc.sty
INPUT C:\Users\Attila\AppData\Local\Programs\MiKTeX\tex\generic\intcalc\intcalc.sty
INPUT C:\Users\Attila\AppData\Local\Programs\MiKTeX\tex\generic\intcalc\intcalc.sty
INPUT C:\Users\Attila\AppData\Local\Programs\MiKTeX\tex\generic\etexcmds\etexcmds.sty
INPUT C:\Users\Attila\AppData\Local\Programs\MiKTeX\tex\generic\etexcmds\etexcmds.sty
INPUT C:\Users\Attila\AppData\Local\Programs\MiKTeX\tex\generic\etexcmds\etexcmds.sty
INPUT C:\Users\Attila\AppData\Local\Programs\MiKTeX\tex\generic\etexcmds\etexcmds.sty
INPUT C:\Users\Attila\AppData\Local\Programs\MiKTeX\tex\generic\etexcmds\etexcmds.sty
INPUT C:\Users\Attila\AppData\Local\Programs\MiKTeX\tex\generic\etexcmds\etexcmds.sty
INPUT C:\Users\Attila\AppData\Local\Programs\MiKTeX\tex\generic\etexcmds\etexcmds.sty
INPUT C:\Users\Attila\AppData\Local\Programs\MiKTeX\tex\generic\etexcmds\etexcmds.sty
INPUT C:\Users\Attila\AppData\Local\Programs\MiKTeX\tex\generic\etexcmds\etexcmds.sty
INPUT C:\Users\Attila\AppData\Local\Programs\MiKTeX\tex\generic\etexcmds\etexcmds.sty
INPUT C:\Users\Attila\AppData\Local\Programs\MiKTeX\tex\generic\etexcmds\etexcmds.sty
INPUT C:\Users\Attila\AppData\Local\Programs\MiKTeX\tex\generic\infwarerr\infwarerr.sty
INPUT C:\Users\Attila\AppData\Local\Programs\MiKTeX\tex\generic\iftex\iftex.sty
INPUT C:\Users\Attila\AppData\Local\Programs\MiKTeX\tex\latex\hyperref\puenc.def
INPUT C:\Users\Attila\AppData\Local\Programs\MiKTeX\tex\latex\hyperref\puenc.def
INPUT C:\Users\Attila\AppData\Local\Programs\MiKTeX\tex\latex\hyperref\puenc.def
INPUT C:\Users\Attila\AppData\Local\Programs\MiKTeX\tex\latex\hyperref\puenc.def
INPUT C:\Users\Attila\AppData\Local\Programs\MiKTeX\tex\latex\url\url.sty
INPUT C:\Users\Attila\AppData\Local\Programs\MiKTeX\tex\latex\url\url.sty
INPUT C:\Users\Attila\AppData\Local\Programs\MiKTeX\tex\latex\url\url.sty
INPUT C:\Users\Attila\AppData\Local\Programs\MiKTeX\tex\latex\url\url.sty
INPUT C:\Users\Attila\AppData\Local\Programs\MiKTeX\tex\latex\url\url.sty
INPUT C:\Users\Attila\AppData\Local\Programs\MiKTeX\tex\latex\url\url.sty
INPUT C:\Users\Attila\AppData\Local\Programs\MiKTeX\tex\latex\url\url.sty
INPUT C:\Users\Attila\AppData\Local\Programs\MiKTeX\tex\latex\url\url.sty
INPUT C:\Users\Attila\AppData\Local\Programs\MiKTeX\tex\latex\url\url.sty
INPUT C:\Users\Attila\AppData\Local\Programs\MiKTeX\tex\latex\url\url.sty
INPUT C:\Users\Attila\AppData\Local\Programs\MiKTeX\tex\latex\url\url.sty
INPUT C:\Users\Attila\AppData\Local\Programs\MiKTeX\tex\generic\bitset\bitset.sty
INPUT C:\Users\Attila\AppData\Local\Programs\MiKTeX\tex\generic\bitset\bitset.sty
INPUT C:\Users\Attila\AppData\Local\Programs\MiKTeX\tex\generic\bitset\bitset.sty
INPUT C:\Users\Attila\AppData\Local\Programs\MiKTeX\tex\generic\bitset\bitset.sty
INPUT C:\Users\Attila\AppData\Local\Programs\MiKTeX\tex\generic\bitset\bitset.sty
INPUT C:\Users\Attila\AppData\Local\Programs\MiKTeX\tex\generic\bitset\bitset.sty
INPUT C:\Users\Attila\AppData\Local\Programs\MiKTeX\tex\generic\bitset\bitset.sty
INPUT C:\Users\Attila\AppData\Local\Programs\MiKTeX\tex\generic\bitset\bitset.sty
INPUT C:\Users\Attila\AppData\Local\Programs\MiKTeX\tex\generic\bitset\bitset.sty
INPUT C:\Users\Attila\AppData\Local\Programs\MiKTeX\tex\generic\bitset\bitset.sty
INPUT C:\Users\Attila\AppData\Local\Programs\MiKTeX\tex\generic\bitset\bitset.sty
INPUT C:\Users\Attila\AppData\Local\Programs\MiKTeX\tex\generic\infwarerr\infwarerr.sty
INPUT C:\Users\Attila\AppData\Local\Programs\MiKTeX\tex\generic\intcalc\intcalc.sty
INPUT C:\Users\Attila\AppData\Local\Programs\MiKTeX\tex\generic\bigintcalc\bigintcalc.sty
INPUT C:\Users\Attila\AppData\Local\Programs\MiKTeX\tex\generic\bigintcalc\bigintcalc.sty
INPUT C:\Users\Attila\AppData\Local\Programs\MiKTeX\tex\generic\bigintcalc\bigintcalc.sty
INPUT C:\Users\Attila\AppData\Local\Programs\MiKTeX\tex\generic\bigintcalc\bigintcalc.sty
INPUT C:\Users\Attila\AppData\Local\Programs\MiKTeX\tex\generic\bigintcalc\bigintcalc.sty
INPUT C:\Users\Attila\AppData\Local\Programs\MiKTeX\tex\generic\bigintcalc\bigintcalc.sty
INPUT C:\Users\Attila\AppData\Local\Programs\MiKTeX\tex\generic\bigintcalc\bigintcalc.sty
INPUT C:\Users\Attila\AppData\Local\Programs\MiKTeX\tex\generic\bigintcalc\bigintcalc.sty
INPUT C:\Users\Attila\AppData\Local\Programs\MiKTeX\tex\generic\bigintcalc\bigintcalc.sty
INPUT C:\Users\Attila\AppData\Local\Programs\MiKTeX\tex\generic\bigintcalc\bigintcalc.sty
INPUT C:\Users\Attila\AppData\Local\Programs\MiKTeX\tex\generic\bigintcalc\bigintcalc.sty
INPUT C:\Users\Attila\AppData\Local\Programs\MiKTeX\tex\generic\pdftexcmds\pdftexcmds.sty
INPUT C:\Users\Attila\AppData\Local\Programs\MiKTeX\tex\generic\atbegshi\atbegshi.sty
INPUT C:\Users\Attila\AppData\Local\Programs\MiKTeX\tex\generic\atbegshi\atbegshi.sty
INPUT C:\Users\Attila\AppData\Local\Programs\MiKTeX\tex\generic\atbegshi\atbegshi.sty
INPUT C:\Users\Attila\AppData\Local\Programs\MiKTeX\tex\latex\base\atbegshi-ltx.sty
INPUT C:\Users\Attila\AppData\Local\Programs\MiKTeX\tex\generic\atbegshi\atbegshi.sty
INPUT C:\Users\Attila\AppData\Local\Programs\MiKTeX\tex\generic\atbegshi\atbegshi.sty
INPUT C:\Users\Attila\AppData\Local\Programs\MiKTeX\tex\latex\base\atbegshi-ltx.sty
INPUT C:\Users\Attila\AppData\Local\Programs\MiKTeX\tex\generic\atbegshi\atbegshi.sty
INPUT C:\Users\Attila\AppData\Local\Programs\MiKTeX\tex\latex\base\atbegshi-ltx.sty
INPUT C:\Users\Attila\AppData\Local\Programs\MiKTeX\tex\latex\base\atbegshi-ltx.sty
INPUT C:\Users\Attila\AppData\Local\Programs\MiKTeX\tex\generic\atbegshi\atbegshi.sty
INPUT C:\Users\Attila\AppData\Local\Programs\MiKTeX\tex\generic\atbegshi\atbegshi.sty
INPUT C:\Users\Attila\AppData\Local\Programs\MiKTeX\tex\latex\base\atbegshi-ltx.sty
INPUT C:\Users\Attila\AppData\Local\Programs\MiKTeX\tex\latex\base\atbegshi-ltx.sty
INPUT C:\Users\Attila\AppData\Local\Programs\MiKTeX\tex\generic\atbegshi\atbegshi.sty
INPUT C:\Users\Attila\AppData\Local\Programs\MiKTeX\tex\latex\base\atbegshi-ltx.sty
INPUT C:\Users\Attila\AppData\Local\Programs\MiKTeX\tex\latex\hyperref\hpdftex.def
INPUT C:\Users\Attila\AppData\Local\Programs\MiKTeX\tex\latex\hyperref\hpdftex.def
INPUT C:\Users\Attila\AppData\Local\Programs\MiKTeX\tex\latex\hyperref\hpdftex.def
INPUT C:\Users\Attila\AppData\Local\Programs\MiKTeX\tex\latex\hyperref\hpdftex.def
INPUT C:\Users\Attila\AppData\Local\Programs\MiKTeX\tex\latex\atveryend\atveryend.sty
INPUT C:\Users\Attila\AppData\Local\Programs\MiKTeX\tex\latex\atveryend\atveryend.sty
INPUT C:\Users\Attila\AppData\Local\Programs\MiKTeX\tex\latex\atveryend\atveryend.sty
INPUT C:\Users\Attila\AppData\Local\Programs\MiKTeX\tex\latex\base\atveryend-ltx.sty
INPUT C:\Users\Attila\AppData\Local\Programs\MiKTeX\tex\latex\atveryend\atveryend.sty
INPUT C:\Users\Attila\AppData\Local\Programs\MiKTeX\tex\latex\atveryend\atveryend.sty
INPUT C:\Users\Attila\AppData\Local\Programs\MiKTeX\tex\latex\base\atveryend-ltx.sty
INPUT C:\Users\Attila\AppData\Local\Programs\MiKTeX\tex\latex\atveryend\atveryend.sty
INPUT C:\Users\Attila\AppData\Local\Programs\MiKTeX\tex\latex\base\atveryend-ltx.sty
INPUT C:\Users\Attila\AppData\Local\Programs\MiKTeX\tex\latex\base\atveryend-ltx.sty
INPUT C:\Users\Attila\AppData\Local\Programs\MiKTeX\tex\latex\atveryend\atveryend.sty
INPUT C:\Users\Attila\AppData\Local\Programs\MiKTeX\tex\latex\atveryend\atveryend.sty
INPUT C:\Users\Attila\AppData\Local\Programs\MiKTeX\tex\latex\base\atveryend-ltx.sty
INPUT C:\Users\Attila\AppData\Local\Programs\MiKTeX\tex\latex\base\atveryend-ltx.sty
INPUT C:\Users\Attila\AppData\Local\Programs\MiKTeX\tex\latex\atveryend\atveryend.sty
INPUT C:\Users\Attila\AppData\Local\Programs\MiKTeX\tex\latex\base\atveryend-ltx.sty
INPUT C:\Users\Attila\AppData\Local\Programs\MiKTeX\tex\latex\rerunfilecheck\rerunfilecheck.sty
INPUT C:\Users\Attila\AppData\Local\Programs\MiKTeX\tex\latex\rerunfilecheck\rerunfilecheck.sty
INPUT C:\Users\Attila\AppData\Local\Programs\MiKTeX\tex\latex\rerunfilecheck\rerunfilecheck.sty
INPUT C:\Users\Attila\AppData\Local\Programs\MiKTeX\tex\latex\rerunfilecheck\rerunfilecheck.sty
INPUT C:\Users\Attila\AppData\Local\Programs\MiKTeX\tex\latex\rerunfilecheck\rerunfilecheck.sty
INPUT C:\Users\Attila\AppData\Local\Programs\MiKTeX\tex\latex\rerunfilecheck\rerunfilecheck.sty
INPUT C:\Users\Attila\AppData\Local\Programs\MiKTeX\tex\latex\rerunfilecheck\rerunfilecheck.sty
INPUT C:\Users\Attila\AppData\Local\Programs\MiKTeX\tex\latex\rerunfilecheck\rerunfilecheck.sty
INPUT C:\Users\Attila\AppData\Local\Programs\MiKTeX\tex\latex\rerunfilecheck\rerunfilecheck.sty
INPUT C:\Users\Attila\AppData\Local\Programs\MiKTeX\tex\latex\rerunfilecheck\rerunfilecheck.sty
INPUT C:\Users\Attila\AppData\Local\Programs\MiKTeX\tex\latex\rerunfilecheck\rerunfilecheck.sty
INPUT C:\Users\Attila\AppData\Local\Programs\MiKTeX\tex\latex\kvoptions\kvoptions.sty
INPUT C:\Users\Attila\AppData\Local\Programs\MiKTeX\tex\generic\infwarerr\infwarerr.sty
INPUT C:\Users\Attila\AppData\Local\Programs\MiKTeX\tex\generic\pdftexcmds\pdftexcmds.sty
INPUT C:\Users\Attila\AppData\Local\Programs\MiKTeX\tex\latex\atveryend\atveryend.sty
INPUT C:\Users\Attila\AppData\Local\Programs\MiKTeX\tex\generic\uniquecounter\uniquecounter.sty
INPUT C:\Users\Attila\AppData\Local\Programs\MiKTeX\tex\generic\uniquecounter\uniquecounter.sty
INPUT C:\Users\Attila\AppData\Local\Programs\MiKTeX\tex\generic\uniquecounter\uniquecounter.sty
INPUT C:\Users\Attila\AppData\Local\Programs\MiKTeX\tex\generic\uniquecounter\uniquecounter.sty
INPUT C:\Users\Attila\AppData\Local\Programs\MiKTeX\tex\generic\uniquecounter\uniquecounter.sty
INPUT C:\Users\Attila\AppData\Local\Programs\MiKTeX\tex\generic\uniquecounter\uniquecounter.sty
INPUT C:\Users\Attila\AppData\Local\Programs\MiKTeX\tex\generic\uniquecounter\uniquecounter.sty
INPUT C:\Users\Attila\AppData\Local\Programs\MiKTeX\tex\generic\uniquecounter\uniquecounter.sty
INPUT C:\Users\Attila\AppData\Local\Programs\MiKTeX\tex\generic\uniquecounter\uniquecounter.sty
INPUT C:\Users\Attila\AppData\Local\Programs\MiKTeX\tex\generic\uniquecounter\uniquecounter.sty
INPUT C:\Users\Attila\AppData\Local\Programs\MiKTeX\tex\generic\uniquecounter\uniquecounter.sty
INPUT C:\Users\Attila\AppData\Local\Programs\MiKTeX\tex\generic\bigintcalc\bigintcalc.sty
INPUT C:\Users\Attila\AppData\Local\Programs\MiKTeX\tex\generic\infwarerr\infwarerr.sty
INPUT C:\Users\Attila\AppData\Local\Programs\MiKTeX\tex\latex\oberdiek\hypcap.sty
INPUT C:\Users\Attila\AppData\Local\Programs\MiKTeX\tex\latex\oberdiek\hypcap.sty
INPUT C:\Users\Attila\AppData\Local\Programs\MiKTeX\tex\latex\oberdiek\hypcap.sty
INPUT C:\Users\Attila\AppData\Local\Programs\MiKTeX\tex\latex\oberdiek\hypcap.sty
INPUT C:\Users\Attila\AppData\Local\Programs\MiKTeX\tex\latex\oberdiek\hypcap.sty
INPUT C:\Users\Attila\AppData\Local\Programs\MiKTeX\tex\latex\oberdiek\hypcap.sty
INPUT C:\Users\Attila\AppData\Local\Programs\MiKTeX\tex\latex\oberdiek\hypcap.sty
INPUT C:\Users\Attila\AppData\Local\Programs\MiKTeX\tex\latex\oberdiek\hypcap.sty
INPUT C:\Users\Attila\AppData\Local\Programs\MiKTeX\tex\latex\oberdiek\hypcap.sty
INPUT C:\Users\Attila\AppData\Local\Programs\MiKTeX\tex\latex\oberdiek\hypcap.sty
INPUT C:\Users\Attila\AppData\Local\Programs\MiKTeX\tex\latex\oberdiek\hypcap.sty
INPUT C:\Users\Attila\AppData\Local\Programs\MiKTeX\tex\latex\letltxmacro\letltxmacro.sty
INPUT .\sphinxmessages.sty
INPUT .\sphinxmessages.sty
INPUT sphinxmessages.sty
INPUT .\sphinxmessages.sty
INPUT .\sphinxmessages.sty
INPUT .\sphinxmessages.sty
INPUT .\sphinxmessages.sty
INPUT .\sphinxmessages.sty
INPUT sphinxmessages.sty
INPUT .\sphinxmessages.sty
INPUT sphinxmessages.sty
INPUT C:\Users\Attila\AppData\Local\Programs\MiKTeX\tex\latex\lm\lmodern.sty
INPUT C:\Users\Attila\AppData\Local\Programs\MiKTeX\tex\latex\lm\lmodern.sty
INPUT C:\Users\Attila\AppData\Local\Programs\MiKTeX\tex\latex\lm\lmodern.sty
INPUT C:\Users\Attila\AppData\Local\Programs\MiKTeX\tex\latex\lm\lmodern.sty
INPUT C:\Users\Attila\AppData\Local\Programs\MiKTeX\tex\latex\lm\lmodern.sty
INPUT C:\Users\Attila\AppData\Local\Programs\MiKTeX\tex\latex\lm\lmodern.sty
INPUT C:\Users\Attila\AppData\Local\Programs\MiKTeX\tex\latex\lm\lmodern.sty
INPUT C:\Users\Attila\AppData\Local\Programs\MiKTeX\tex\latex\lm\lmodern.sty
INPUT C:\Users\Attila\AppData\Local\Programs\MiKTeX\tex\latex\lm\lmodern.sty
INPUT C:\Users\Attila\AppData\Local\Programs\MiKTeX\tex\latex\lm\lmodern.sty
INPUT C:\Users\Attila\AppData\Local\Programs\MiKTeX\tex\latex\lm\lmodern.sty
OUTPUT statchem.idx
INPUT C:\Users\Attila\AppData\Local\Programs\MiKTeX\tex\latex\lm\t1lmr.fd
INPUT C:\Users\Attila\AppData\Local\Programs\MiKTeX\tex\latex\lm\t1lmr.fd
INPUT C:\Users\Attila\AppData\Local\Programs\MiKTeX\tex\latex\lm\t1lmr.fd
INPUT C:\Users\Attila\AppData\Local\Programs\MiKTeX\tex\latex\lm\t1lmr.fd
INPUT C:\Users\Attila\AppData\Local\Programs\MiKTeX\fonts\tfm\public\lm\ec-lmr10.tfm
INPUT C:\Users\Attila\AppData\Local\Programs\MiKTeX\tex\latex\l3backend\l3backend-pdftex.def
INPUT C:\Users\Attila\AppData\Local\Programs\MiKTeX\tex\latex\l3backend\l3backend-pdftex.def
INPUT C:\Users\Attila\AppData\Local\Programs\MiKTeX\tex\latex\l3backend\l3backend-pdftex.def
INPUT C:\Users\Attila\AppData\Local\Programs\MiKTeX\tex\latex\l3backend\l3backend-pdftex.def
INPUT C:\Users\Attila\AppData\Local\Programs\MiKTeX\tex\latex\l3backend\l3backend-pdftex.def
INPUT C:\Users\Attila\AppData\Local\Programs\MiKTeX\tex\latex\l3backend\l3backend-pdftex.def
INPUT C:\Users\Attila\AppData\Local\Programs\MiKTeX\tex\latex\l3backend\l3backend-pdftex.def
INPUT C:\Users\Attila\AppData\Local\Programs\MiKTeX\tex\latex\l3backend\l3backend-pdftex.def
INPUT C:\Users\Attila\AppData\Local\Programs\MiKTeX\tex\latex\l3backend\l3backend-pdftex.def
INPUT C:\Users\Attila\AppData\Local\Programs\MiKTeX\tex\latex\l3backend\l3backend-pdftex.def
INPUT C:\Users\Attila\AppData\Local\Programs\MiKTeX\tex\latex\l3backend\l3backend-pdftex.def
INPUT .\statchem.aux
INPUT statchem.aux
INPUT statchem.aux
OUTPUT statchem.aux
INPUT C:\Users\Attila\AppData\Local\Programs\MiKTeX\tex\context\base\mkii\supp-pdf.mkii
INPUT C:\Users\Attila\AppData\Local\Programs\MiKTeX\tex\context\base\mkii\supp-pdf.mkii
INPUT C:\Users\Attila\AppData\Local\Programs\MiKTeX\tex\context\base\mkii\supp-pdf.mkii
INPUT C:\Users\Attila\AppData\Local\Programs\MiKTeX\tex\context\base\mkii\supp-pdf.mkii
INPUT C:\Users\Attila\AppData\Local\Programs\MiKTeX\tex\latex\epstopdf-pkg\epstopdf-base.sty
INPUT C:\Users\Attila\AppData\Local\Programs\MiKTeX\tex\latex\epstopdf-pkg\epstopdf-base.sty
INPUT C:\Users\Attila\AppData\Local\Programs\MiKTeX\tex\latex\epstopdf-pkg\epstopdf-base.sty
INPUT C:\Users\Attila\AppData\Local\Programs\MiKTeX\tex\latex\epstopdf-pkg\epstopdf-base.sty
INPUT C:\Users\Attila\AppData\Local\Programs\MiKTeX\tex\latex\epstopdf-pkg\epstopdf-base.sty
INPUT C:\Users\Attila\AppData\Local\Programs\MiKTeX\tex\latex\epstopdf-pkg\epstopdf-base.sty
INPUT C:\Users\Attila\AppData\Local\Programs\MiKTeX\tex\latex\epstopdf-pkg\epstopdf-base.sty
INPUT C:\Users\Attila\AppData\Local\Programs\MiKTeX\tex\latex\epstopdf-pkg\epstopdf-base.sty
INPUT C:\Users\Attila\AppData\Local\Programs\MiKTeX\tex\latex\epstopdf-pkg\epstopdf-base.sty
INPUT C:\Users\Attila\AppData\Local\Programs\MiKTeX\tex\latex\epstopdf-pkg\epstopdf-base.sty
INPUT C:\Users\Attila\AppData\Local\Programs\MiKTeX\tex\latex\epstopdf-pkg\epstopdf-base.sty
INPUT C:\Users\Attila\AppData\Local\Programs\MiKTeX\tex\latex\graphics\color.sty
INPUT C:\Users\Attila\AppData\Local\Programs\MiKTeX\tex\latex\hyperref\nameref.sty
INPUT C:\Users\Attila\AppData\Local\Programs\MiKTeX\tex\latex\hyperref\nameref.sty
INPUT C:\Users\Attila\AppData\Local\Programs\MiKTeX\tex\latex\hyperref\nameref.sty
INPUT C:\Users\Attila\AppData\Local\Programs\MiKTeX\tex\latex\hyperref\nameref.sty
INPUT C:\Users\Attila\AppData\Local\Programs\MiKTeX\tex\latex\hyperref\nameref.sty
INPUT C:\Users\Attila\AppData\Local\Programs\MiKTeX\tex\latex\hyperref\nameref.sty
INPUT C:\Users\Attila\AppData\Local\Programs\MiKTeX\tex\latex\hyperref\nameref.sty
INPUT C:\Users\Attila\AppData\Local\Programs\MiKTeX\tex\latex\hyperref\nameref.sty
INPUT C:\Users\Attila\AppData\Local\Programs\MiKTeX\tex\latex\hyperref\nameref.sty
INPUT C:\Users\Attila\AppData\Local\Programs\MiKTeX\tex\latex\hyperref\nameref.sty
INPUT C:\Users\Attila\AppData\Local\Programs\MiKTeX\tex\latex\hyperref\nameref.sty
INPUT C:\Users\Attila\AppData\Local\Programs\MiKTeX\tex\latex\refcount\refcount.sty
INPUT C:\Users\Attila\AppData\Local\Programs\MiKTeX\tex\latex\refcount\refcount.sty
INPUT C:\Users\Attila\AppData\Local\Programs\MiKTeX\tex\latex\refcount\refcount.sty
INPUT C:\Users\Attila\AppData\Local\Programs\MiKTeX\tex\latex\refcount\refcount.sty
INPUT C:\Users\Attila\AppData\Local\Programs\MiKTeX\tex\latex\refcount\refcount.sty
INPUT C:\Users\Attila\AppData\Local\Programs\MiKTeX\tex\latex\refcount\refcount.sty
INPUT C:\Users\Attila\AppData\Local\Programs\MiKTeX\tex\latex\refcount\refcount.sty
INPUT C:\Users\Attila\AppData\Local\Programs\MiKTeX\tex\latex\refcount\refcount.sty
INPUT C:\Users\Attila\AppData\Local\Programs\MiKTeX\tex\latex\refcount\refcount.sty
INPUT C:\Users\Attila\AppData\Local\Programs\MiKTeX\tex\latex\refcount\refcount.sty
INPUT C:\Users\Attila\AppData\Local\Programs\MiKTeX\tex\latex\refcount\refcount.sty
INPUT C:\Users\Attila\AppData\Local\Programs\MiKTeX\tex\generic\ltxcmds\ltxcmds.sty
INPUT C:\Users\Attila\AppData\Local\Programs\MiKTeX\tex\generic\infwarerr\infwarerr.sty
INPUT C:\Users\Attila\AppData\Local\Programs\MiKTeX\tex\generic\gettitlestring\gettitlestring.sty
INPUT C:\Users\Attila\AppData\Local\Programs\MiKTeX\tex\generic\gettitlestring\gettitlestring.sty
INPUT C:\Users\Attila\AppData\Local\Programs\MiKTeX\tex\generic\gettitlestring\gettitlestring.sty
INPUT C:\Users\Attila\AppData\Local\Programs\MiKTeX\tex\generic\gettitlestring\gettitlestring.sty
INPUT C:\Users\Attila\AppData\Local\Programs\MiKTeX\tex\generic\gettitlestring\gettitlestring.sty
INPUT C:\Users\Attila\AppData\Local\Programs\MiKTeX\tex\generic\gettitlestring\gettitlestring.sty
INPUT C:\Users\Attila\AppData\Local\Programs\MiKTeX\tex\generic\gettitlestring\gettitlestring.sty
INPUT C:\Users\Attila\AppData\Local\Programs\MiKTeX\tex\generic\gettitlestring\gettitlestring.sty
INPUT C:\Users\Attila\AppData\Local\Programs\MiKTeX\tex\generic\gettitlestring\gettitlestring.sty
INPUT C:\Users\Attila\AppData\Local\Programs\MiKTeX\tex\generic\gettitlestring\gettitlestring.sty
INPUT C:\Users\Attila\AppData\Local\Programs\MiKTeX\tex\generic\gettitlestring\gettitlestring.sty
INPUT C:\Users\Attila\AppData\Local\Programs\MiKTeX\tex\latex\kvoptions\kvoptions.sty
INPUT C:\Users\Attila\AppData\Local\Programs\MiKTeX\tex\generic\ltxcmds\ltxcmds.sty
INPUT .\statchem.out
INPUT statchem.out
INPUT .\statchem.out
INPUT statchem.out
INPUT .\statchem.out
INPUT statchem.out
INPUT .\statchem.out
INPUT statchem.out
INPUT .\statchem.out
INPUT .\statchem.out
OUTPUT statchem.out
INPUT C:\Users\Attila\AppData\Local\Programs\MiKTeX\tex\latex\lm\t1lmss.fd
INPUT C:\Users\Attila\AppData\Local\Programs\MiKTeX\tex\latex\lm\t1lmss.fd
INPUT C:\Users\Attila\AppData\Local\Programs\MiKTeX\tex\latex\lm\t1lmss.fd
INPUT C:\Users\Attila\AppData\Local\Programs\MiKTeX\tex\latex\lm\t1lmss.fd
INPUT C:\Users\Attila\AppData\Local\Programs\MiKTeX\fonts\tfm\public\lm\ec-lmss10.tfm
INPUT C:\Users\Attila\AppData\Local\Programs\MiKTeX\fonts\tfm\public\lm\ec-lmssbx10.tfm
INPUT C:\Users\Attila\AppData\Local\Programs\MiKTeX\fonts\tfm\public\lm\ec-lmssbx10.tfm
INPUT C:\Users\Attila\AppData\Local\Programs\MiKTeX\fonts\tfm\public\lm\ec-lmssbo10.tfm
INPUT C:\Users\Attila\AppData\Local\Programs\MiKTeX\fonts\tfm\public\lm\ec-lmssbo10.tfm
INPUT C:\Users\Attila\AppData\Local\Programs\MiKTeX\fonts\tfm\public\lm\ec-lmssbx10.tfm
INPUT C:\Users\Attila\AppData\Local\Programs\MiKTeX\tex\latex\lm\ot1lmr.fd
INPUT C:\Users\Attila\AppData\Local\Programs\MiKTeX\tex\latex\lm\ot1lmr.fd
INPUT C:\Users\Attila\AppData\Local\Programs\MiKTeX\tex\latex\lm\ot1lmr.fd
INPUT C:\Users\Attila\AppData\Local\Programs\MiKTeX\tex\latex\lm\ot1lmr.fd
INPUT C:\Users\Attila\AppData\Local\Programs\MiKTeX\fonts\tfm\public\lm\rm-lmr17.tfm
INPUT C:\Users\Attila\AppData\Local\Programs\MiKTeX\tex\latex\cmap\ot1.cmap
INPUT C:\Users\Attila\AppData\Local\Programs\MiKTeX\tex\latex\cmap\ot1.cmap
INPUT C:\Users\Attila\AppData\Local\Programs\MiKTeX\tex\latex\cmap\ot1.cmap
INPUT C:\Users\Attila\AppData\Local\Programs\MiKTeX\fonts\tfm\public\lm\rm-lmr12.tfm
INPUT C:\Users\Attila\AppData\Local\Programs\MiKTeX\fonts\tfm\public\lm\rm-lmr10.tfm
INPUT C:\Users\Attila\AppData\Local\Programs\MiKTeX\tex\latex\lm\omllmm.fd
INPUT C:\Users\Attila\AppData\Local\Programs\MiKTeX\tex\latex\lm\omllmm.fd
INPUT C:\Users\Attila\AppData\Local\Programs\MiKTeX\tex\latex\lm\omllmm.fd
INPUT C:\Users\Attila\AppData\Local\Programs\MiKTeX\tex\latex\lm\omllmm.fd
INPUT C:\Users\Attila\AppData\Local\Programs\MiKTeX\fonts\tfm\public\lm\lmmi12.tfm
INPUT C:\Users\Attila\AppData\Local\Programs\MiKTeX\tex\latex\mmap\oml.cmap
INPUT C:\Users\Attila\AppData\Local\Programs\MiKTeX\tex\latex\mmap\oml.cmap
INPUT C:\Users\Attila\AppData\Local\Programs\MiKTeX\tex\latex\mmap\oml.cmap
INPUT C:\Users\Attila\AppData\Local\Programs\MiKTeX\fonts\tfm\public\lm\lmmi12.tfm
INPUT C:\Users\Attila\AppData\Local\Programs\MiKTeX\fonts\tfm\public\lm\lmmi10.tfm
INPUT C:\Users\Attila\AppData\Local\Programs\MiKTeX\tex\latex\lm\omslmsy.fd
INPUT C:\Users\Attila\AppData\Local\Programs\MiKTeX\tex\latex\lm\omslmsy.fd
INPUT C:\Users\Attila\AppData\Local\Programs\MiKTeX\tex\latex\lm\omslmsy.fd
INPUT C:\Users\Attila\AppData\Local\Programs\MiKTeX\tex\latex\lm\omslmsy.fd
INPUT C:\Users\Attila\AppData\Local\Programs\MiKTeX\fonts\tfm\public\lm\lmsy10.tfm
INPUT C:\Users\Attila\AppData\Local\Programs\MiKTeX\tex\latex\mmap\oms.cmap
INPUT C:\Users\Attila\AppData\Local\Programs\MiKTeX\tex\latex\mmap\oms.cmap
INPUT C:\Users\Attila\AppData\Local\Programs\MiKTeX\tex\latex\mmap\oms.cmap
INPUT C:\Users\Attila\AppData\Local\Programs\MiKTeX\fonts\tfm\public\lm\lmsy10.tfm
INPUT C:\Users\Attila\AppData\Local\Programs\MiKTeX\fonts\tfm\public\lm\lmsy10.tfm
INPUT C:\Users\Attila\AppData\Local\Programs\MiKTeX\tex\latex\lm\omxlmex.fd
INPUT C:\Users\Attila\AppData\Local\Programs\MiKTeX\tex\latex\lm\omxlmex.fd
INPUT C:\Users\Attila\AppData\Local\Programs\MiKTeX\tex\latex\lm\omxlmex.fd
INPUT C:\Users\Attila\AppData\Local\Programs\MiKTeX\tex\latex\lm\omxlmex.fd
INPUT C:\Users\Attila\AppData\Local\Programs\MiKTeX\fonts\tfm\public\lm\lmex10.tfm
INPUT C:\Users\Attila\AppData\Local\Programs\MiKTeX\tex\latex\mmap\omx.cmap
INPUT C:\Users\Attila\AppData\Local\Programs\MiKTeX\tex\latex\mmap\omx.cmap
INPUT C:\Users\Attila\AppData\Local\Programs\MiKTeX\tex\latex\mmap\omx.cmap
INPUT C:\Users\Attila\AppData\Local\Programs\MiKTeX\tex\latex\amsfonts\umsa.fd
INPUT C:\Users\Attila\AppData\Local\Programs\MiKTeX\tex\latex\amsfonts\umsa.fd
INPUT C:\Users\Attila\AppData\Local\Programs\MiKTeX\tex\latex\amsfonts\umsa.fd
INPUT C:\Users\Attila\AppData\Local\Programs\MiKTeX\tex\latex\amsfonts\umsa.fd
INPUT C:\Users\Attila\AppData\Local\Programs\MiKTeX\fonts\tfm\public\amsfonts\symbols\msam10.tfm
INPUT C:\Users\Attila\AppData\Local\Programs\MiKTeX\fonts\tfm\public\amsfonts\symbols\msam10.tfm
INPUT C:\Users\Attila\AppData\Local\Programs\MiKTeX\fonts\tfm\public\amsfonts\symbols\msam10.tfm
INPUT C:\Users\Attila\AppData\Local\Programs\MiKTeX\tex\latex\amsfonts\umsb.fd
INPUT C:\Users\Attila\AppData\Local\Programs\MiKTeX\tex\latex\amsfonts\umsb.fd
INPUT C:\Users\Attila\AppData\Local\Programs\MiKTeX\tex\latex\amsfonts\umsb.fd
INPUT C:\Users\Attila\AppData\Local\Programs\MiKTeX\tex\latex\amsfonts\umsb.fd
INPUT C:\Users\Attila\AppData\Local\Programs\MiKTeX\fonts\tfm\public\amsfonts\symbols\msbm10.tfm
INPUT C:\Users\Attila\AppData\Local\Programs\MiKTeX\fonts\tfm\public\amsfonts\symbols\msbm10.tfm
INPUT C:\Users\Attila\AppData\Local\Programs\MiKTeX\fonts\tfm\public\amsfonts\symbols\msbm10.tfm
INPUT C:\Users\Attila\AppData\Local\Programs\MiKTeX\fonts\tfm\public\lm\ec-lmssbx10.tfm
INPUT C:\Users\Attila\AppData\Local\MiKTeX\pdftex\config\pdftex.map
INPUT C:\Users\Attila\AppData\Local\Programs\MiKTeX\fonts\tfm\public\lm\ec-lmr12.tfm
INPUT C:\Users\Attila\AppData\Local\Programs\MiKTeX\fonts\tfm\public\lm\ec-lmss12.tfm
INPUT C:\Users\Attila\AppData\Local\Programs\MiKTeX\fonts\tfm\public\lm\ec-lmssbx10.tfm
INPUT .\statchem.toc
INPUT statchem.toc
INPUT statchem.toc
INPUT C:\Users\Attila\AppData\Local\Programs\MiKTeX\fonts\tfm\public\lm\ec-lmbx10.tfm
INPUT C:\Users\Attila\AppData\Local\Programs\MiKTeX\fonts\tfm\public\lm\rm-lmr7.tfm
INPUT C:\Users\Attila\AppData\Local\Programs\MiKTeX\fonts\tfm\public\lm\rm-lmr5.tfm
INPUT C:\Users\Attila\AppData\Local\Programs\MiKTeX\fonts\tfm\public\lm\lmmi7.tfm
INPUT C:\Users\Attila\AppData\Local\Programs\MiKTeX\fonts\tfm\public\lm\lmmi5.tfm
INPUT C:\Users\Attila\AppData\Local\Programs\MiKTeX\fonts\tfm\public\lm\lmsy7.tfm
INPUT C:\Users\Attila\AppData\Local\Programs\MiKTeX\fonts\tfm\public\lm\lmsy5.tfm
INPUT C:\Users\Attila\AppData\Local\Programs\MiKTeX\fonts\tfm\public\amsfonts\symbols\msam7.tfm
INPUT C:\Users\Attila\AppData\Local\Programs\MiKTeX\fonts\tfm\public\amsfonts\symbols\msam5.tfm
INPUT C:\Users\Attila\AppData\Local\Programs\MiKTeX\fonts\tfm\public\amsfonts\symbols\msbm7.tfm
INPUT C:\Users\Attila\AppData\Local\Programs\MiKTeX\fonts\tfm\public\amsfonts\symbols\msbm5.tfm
OUTPUT statchem.toc
INPUT C:\Users\Attila\AppData\Local\Programs\MiKTeX\tex\latex\lm\t1lmtt.fd
INPUT C:\Users\Attila\AppData\Local\Programs\MiKTeX\tex\latex\lm\t1lmtt.fd
INPUT C:\Users\Attila\AppData\Local\Programs\MiKTeX\tex\latex\lm\t1lmtt.fd
INPUT C:\Users\Attila\AppData\Local\Programs\MiKTeX\tex\latex\lm\t1lmtt.fd
INPUT C:\Users\Attila\AppData\Local\Programs\MiKTeX\fonts\tfm\public\lm\ec-lmtk10.tfm
INPUT C:\Users\Attila\AppData\Local\Programs\MiKTeX\fonts\tfm\public\lm\ec-lmtt10.tfm
INPUT C:\Users\Attila\AppData\Local\Programs\MiKTeX\fonts\tfm\public\lm\ec-lmri10.tfm
INPUT C:\Users\Attila\AppData\Local\Programs\MiKTeX\tex\latex\lm\ts1lmr.fd
INPUT C:\Users\Attila\AppData\Local\Programs\MiKTeX\tex\latex\lm\ts1lmr.fd
INPUT C:\Users\Attila\AppData\Local\Programs\MiKTeX\tex\latex\lm\ts1lmr.fd
INPUT C:\Users\Attila\AppData\Local\Programs\MiKTeX\tex\latex\lm\ts1lmr.fd
INPUT C:\Users\Attila\AppData\Local\Programs\MiKTeX\fonts\tfm\public\lm\ts1-lmri10.tfm
INPUT C:\Users\Attila\AppData\Local\Programs\MiKTeX\fonts\tfm\public\lm\ec-lmr9.tfm
INPUT C:\Users\Attila\AppData\Local\Programs\MiKTeX\fonts\tfm\public\lm\ec-lmtt9.tfm
INPUT C:\Users\Attila\AppData\Local\Programs\MiKTeX\fonts\tfm\public\lm\ec-lmtt8.tfm
INPUT C:\Users\Attila\AppData\Local\Programs\MiKTeX\fonts\tfm\public\lm\ec-lmtk10.tfm
INPUT C:\Users\Attila\AppData\Local\Programs\MiKTeX\tex\latex\lm\ts1lmtt.fd
INPUT C:\Users\Attila\AppData\Local\Programs\MiKTeX\tex\latex\lm\ts1lmtt.fd
INPUT C:\Users\Attila\AppData\Local\Programs\MiKTeX\tex\latex\lm\ts1lmtt.fd
INPUT C:\Users\Attila\AppData\Local\Programs\MiKTeX\tex\latex\lm\ts1lmtt.fd
INPUT C:\Users\Attila\AppData\Local\Programs\MiKTeX\fonts\tfm\public\lm\ts1-lmtt9.tfm
INPUT C:\Users\Attila\AppData\Local\Programs\MiKTeX\fonts\tfm\public\lm\ec-lmtti10.tfm
INPUT .\statchem.ind
INPUT statchem.ind
INPUT .\statchem.ind
INPUT statchem.ind
INPUT statchem.aux
INPUT .\statchem.out
INPUT .\statchem.out
INPUT C:\Users\Attila\AppData\Local\Programs\MiKTeX\fonts\enc\dvips\lm\lm-ec.enc
INPUT C:\Users\Attila\AppData\Local\Programs\MiKTeX\fonts\enc\dvips\lm\lm-rm.enc
INPUT C:\Users\Attila\AppData\Local\Programs\MiKTeX\fonts\enc\dvips\lm\lm-mathit.enc
INPUT C:\Users\Attila\AppData\Local\Programs\MiKTeX\fonts\enc\dvips\lm\lm-mathsy.enc
INPUT C:\Users\Attila\AppData\Local\Programs\MiKTeX\fonts\enc\dvips\lm\lm-mathex.enc
INPUT C:\Users\Attila\AppData\Local\Programs\MiKTeX\fonts\enc\dvips\lm\lm-ts1.enc
INPUT C:\Users\Attila\AppData\Local\Programs\MiKTeX\fonts\type1\public\lm\lmbx10.pfb
INPUT C:\Users\Attila\AppData\Local\Programs\MiKTeX\fonts\type1\public\lm\lmbx10.pfb
INPUT C:\Users\Attila\AppData\Local\Programs\MiKTeX\fonts\type1\public\lm\lmex10.pfb
INPUT C:\Users\Attila\AppData\Local\Programs\MiKTeX\fonts\type1\public\lm\lmex10.pfb
INPUT C:\Users\Attila\AppData\Local\Programs\MiKTeX\fonts\type1\public\lm\lmmi10.pfb
INPUT C:\Users\Attila\AppData\Local\Programs\MiKTeX\fonts\type1\public\lm\lmmi10.pfb
INPUT C:\Users\Attila\AppData\Local\Programs\MiKTeX\fonts\type1\public\lm\lmmi5.pfb
INPUT C:\Users\Attila\AppData\Local\Programs\MiKTeX\fonts\type1\public\lm\lmmi5.pfb
INPUT C:\Users\Attila\AppData\Local\Programs\MiKTeX\fonts\type1\public\lm\lmmi7.pfb
INPUT C:\Users\Attila\AppData\Local\Programs\MiKTeX\fonts\type1\public\lm\lmmi7.pfb
INPUT C:\Users\Attila\AppData\Local\Programs\MiKTeX\fonts\type1\public\lm\lmr10.pfb
INPUT C:\Users\Attila\AppData\Local\Programs\MiKTeX\fonts\type1\public\lm\lmr10.pfb
INPUT C:\Users\Attila\AppData\Local\Programs\MiKTeX\fonts\type1\public\lm\lmr5.pfb
INPUT C:\Users\Attila\AppData\Local\Programs\MiKTeX\fonts\type1\public\lm\lmr5.pfb
INPUT C:\Users\Attila\AppData\Local\Programs\MiKTeX\fonts\type1\public\lm\lmr7.pfb
INPUT C:\Users\Attila\AppData\Local\Programs\MiKTeX\fonts\type1\public\lm\lmr7.pfb
INPUT C:\Users\Attila\AppData\Local\Programs\MiKTeX\fonts\type1\public\lm\lmri10.pfb
INPUT C:\Users\Attila\AppData\Local\Programs\MiKTeX\fonts\type1\public\lm\lmri10.pfb
INPUT C:\Users\Attila\AppData\Local\Programs\MiKTeX\fonts\type1\public\lm\lmss12.pfb
INPUT C:\Users\Attila\AppData\Local\Programs\MiKTeX\fonts\type1\public\lm\lmss12.pfb
INPUT C:\Users\Attila\AppData\Local\Programs\MiKTeX\fonts\type1\public\lm\lmssbx10.pfb
INPUT C:\Users\Attila\AppData\Local\Programs\MiKTeX\fonts\type1\public\lm\lmssbx10.pfb
INPUT C:\Users\Attila\AppData\Local\Programs\MiKTeX\fonts\type1\public\lm\lmsy10.pfb
INPUT C:\Users\Attila\AppData\Local\Programs\MiKTeX\fonts\type1\public\lm\lmsy10.pfb
INPUT C:\Users\Attila\AppData\Local\Programs\MiKTeX\fonts\type1\public\lm\lmsy7.pfb
INPUT C:\Users\Attila\AppData\Local\Programs\MiKTeX\fonts\type1\public\lm\lmsy7.pfb
INPUT C:\Users\Attila\AppData\Local\Programs\MiKTeX\fonts\type1\public\lm\lmtk10.pfb
INPUT C:\Users\Attila\AppData\Local\Programs\MiKTeX\fonts\type1\public\lm\lmtk10.pfb
INPUT C:\Users\Attila\AppData\Local\Programs\MiKTeX\fonts\type1\public\lm\lmtt10.pfb
INPUT C:\Users\Attila\AppData\Local\Programs\MiKTeX\fonts\type1\public\lm\lmtt10.pfb
INPUT C:\Users\Attila\AppData\Local\Programs\MiKTeX\fonts\type1\public\lm\lmtt9.pfb
INPUT C:\Users\Attila\AppData\Local\Programs\MiKTeX\fonts\type1\public\lm\lmtt9.pfb
INPUT C:\Users\Attila\AppData\Local\Programs\MiKTeX\fonts\type1\public\lm\lmtti10.pfb
INPUT C:\Users\Attila\AppData\Local\Programs\MiKTeX\fonts\type1\public\lm\lmtti10.pfb
