# Fdb version 3
["makeindex statchem.idx"] 1620456980 "statchem.idx" "statchem.ind" "statchem" 1633504178
  "statchem.idx" 1633504177 4367 4b5f5b898f5b358dd03bcd23db2e80d1 "pdflatex"
  (generated)
  "statchem.ind"
  "statchem.ilg"
["pdflatex"] 1633504170 "statchem.tex" "statchem.pdf" "statchem" 1633504178
  "C:/Users/Attila/AppData/Local/MiKTeX/miktex/data/le/pdftex/pdflatex.fmt" 1615564533 9407938 257aa0d49639d3b90f1cd61bda49c4fd ""
  "C:/Users/Attila/AppData/Local/MiKTeX/pdftex/config/pdftex.map" 1630751646 82507 a9eef8696c92627b87e9975edea03b2a ""
  "C:/Users/Attila/AppData/Local/Programs/MiKTeX/fonts/enc/dvips/lm/lm-ec.enc" 1254938640 2375 baa924870cfb487815765f9094cf3728 ""
  "C:/Users/Attila/AppData/Local/Programs/MiKTeX/fonts/enc/dvips/lm/lm-mathex.enc" 1254938640 3486 c7eadf5dcc57b3b2d11736679f6636ba ""
  "C:/Users/Attila/AppData/Local/Programs/MiKTeX/fonts/enc/dvips/lm/lm-mathit.enc" 1254938640 2405 5dcf2c1b967ee25cc46c58cd52244aed ""
  "C:/Users/Attila/AppData/Local/Programs/MiKTeX/fonts/enc/dvips/lm/lm-mathsy.enc" 1254938640 2840 216e6e45ad352e2456e1149f28885bee ""
  "C:/Users/Attila/AppData/Local/Programs/MiKTeX/fonts/enc/dvips/lm/lm-rm.enc" 1254938640 2327 9d6df24f9c4f7368395224341a95523a ""
  "C:/Users/Attila/AppData/Local/Programs/MiKTeX/fonts/enc/dvips/lm/lm-ts1.enc" 1254938640 3031 6c4d3515bf7115d8518af1c9ab97ca44 ""
  "C:/Users/Attila/AppData/Local/Programs/MiKTeX/fonts/tfm/jknappen/ec/ecrm1000.tfm" 993062122 3148 7e594c8240c71e432203f65ab5f95a51 ""
  "C:/Users/Attila/AppData/Local/Programs/MiKTeX/fonts/tfm/public/amsfonts/symbols/msam10.tfm" 1233955454 916 f87d7c45f9c908e672703b83b72241a3 ""
  "C:/Users/Attila/AppData/Local/Programs/MiKTeX/fonts/tfm/public/amsfonts/symbols/msam5.tfm" 1233955454 924 9904cf1d39e9767e7a3622f2a125a565 ""
  "C:/Users/Attila/AppData/Local/Programs/MiKTeX/fonts/tfm/public/amsfonts/symbols/msam7.tfm" 1233955454 928 2dc8d444221b7a635bb58038579b861a ""
  "C:/Users/Attila/AppData/Local/Programs/MiKTeX/fonts/tfm/public/amsfonts/symbols/msbm10.tfm" 1233955454 908 2921f8a10601f252058503cc6570e581 ""
  "C:/Users/Attila/AppData/Local/Programs/MiKTeX/fonts/tfm/public/amsfonts/symbols/msbm5.tfm" 1233955454 940 75ac932a52f80982a9f8ea75d03a34cf ""
  "C:/Users/Attila/AppData/Local/Programs/MiKTeX/fonts/tfm/public/amsfonts/symbols/msbm7.tfm" 1233955454 940 228d6584342e91276bf566bcf9716b83 ""
  "C:/Users/Attila/AppData/Local/Programs/MiKTeX/fonts/tfm/public/lm/ec-lmbx10.tfm" 1254938640 12076 b54175e02101bea1addf6b2d0197ed12 ""
  "C:/Users/Attila/AppData/Local/Programs/MiKTeX/fonts/tfm/public/lm/ec-lmr10.tfm" 1254938640 12056 7e13df7fe4cbce21b072ba7c4f4deb6e ""
  "C:/Users/Attila/AppData/Local/Programs/MiKTeX/fonts/tfm/public/lm/ec-lmr12.tfm" 1254938640 12092 7b1546e2d096cfd5dcbd4049b0b1ec2e ""
  "C:/Users/Attila/AppData/Local/Programs/MiKTeX/fonts/tfm/public/lm/ec-lmr9.tfm" 1254938640 12084 b7f5e4c003de6f57f07c7e9fee73a37c ""
  "C:/Users/Attila/AppData/Local/Programs/MiKTeX/fonts/tfm/public/lm/ec-lmri10.tfm" 1254938640 17148 9556e1b5f936b77a796f68d2d559ba99 ""
  "C:/Users/Attila/AppData/Local/Programs/MiKTeX/fonts/tfm/public/lm/ec-lmss10.tfm" 1254938640 11176 53ebf7a171df1f9447b387b178768bb5 ""
  "C:/Users/Attila/AppData/Local/Programs/MiKTeX/fonts/tfm/public/lm/ec-lmss12.tfm" 1254938640 11232 955a7245396175d9219648eadc654ac9 ""
  "C:/Users/Attila/AppData/Local/Programs/MiKTeX/fonts/tfm/public/lm/ec-lmssbo10.tfm" 1254938640 11304 1bf3f99c327bf3c434fc66d6737a89a2 ""
  "C:/Users/Attila/AppData/Local/Programs/MiKTeX/fonts/tfm/public/lm/ec-lmssbx10.tfm" 1254938640 11168 06d87f5698fd1b642d96449b7c8d90b0 ""
  "C:/Users/Attila/AppData/Local/Programs/MiKTeX/fonts/tfm/public/lm/ec-lmtk10.tfm" 1254938640 1368 5bfeb1cf8f9f0acdb7436bfaa8e0da4e ""
  "C:/Users/Attila/AppData/Local/Programs/MiKTeX/fonts/tfm/public/lm/ec-lmtt10.tfm" 1254938640 1372 2ef2c2b492b3c4cd7879fe083abbb061 ""
  "C:/Users/Attila/AppData/Local/Programs/MiKTeX/fonts/tfm/public/lm/ec-lmtt8.tfm" 1254938640 1380 64228d979098ac090aa3f98d5aa8ad3e ""
  "C:/Users/Attila/AppData/Local/Programs/MiKTeX/fonts/tfm/public/lm/ec-lmtt9.tfm" 1254938640 1372 a2ff2d4391a2d6bba15b518acb79e80f ""
  "C:/Users/Attila/AppData/Local/Programs/MiKTeX/fonts/tfm/public/lm/ec-lmtti10.tfm" 1254938640 1372 0dcee1a56926aed3dd9ded91b7563563 ""
  "C:/Users/Attila/AppData/Local/Programs/MiKTeX/fonts/tfm/public/lm/lmex10.tfm" 1254938640 992 ce925c9346c7613270a79afbee98c070 ""
  "C:/Users/Attila/AppData/Local/Programs/MiKTeX/fonts/tfm/public/lm/lmmi10.tfm" 1254938640 1528 6d36b2385e0ca062a654de6ac59cb34f ""
  "C:/Users/Attila/AppData/Local/Programs/MiKTeX/fonts/tfm/public/lm/lmmi12.tfm" 1254938640 1524 753b192b18f2991794f9d41a8228510b ""
  "C:/Users/Attila/AppData/Local/Programs/MiKTeX/fonts/tfm/public/lm/lmmi5.tfm" 1254938640 1508 51526923e80e59e37a4e87448b5af6e0 ""
  "C:/Users/Attila/AppData/Local/Programs/MiKTeX/fonts/tfm/public/lm/lmmi7.tfm" 1254938640 1528 d5b028dd23da623848ef0645c96a1ed7 ""
  "C:/Users/Attila/AppData/Local/Programs/MiKTeX/fonts/tfm/public/lm/lmsy10.tfm" 1254938640 1308 02cc510f9dd6012e5815d0c0ffbf6869 ""
  "C:/Users/Attila/AppData/Local/Programs/MiKTeX/fonts/tfm/public/lm/lmsy5.tfm" 1254938640 1296 54ed1a711e2303d5282575278e3620b0 ""
  "C:/Users/Attila/AppData/Local/Programs/MiKTeX/fonts/tfm/public/lm/lmsy7.tfm" 1254938640 1304 32f22a15acc296b2a4e15698403dcb88 ""
  "C:/Users/Attila/AppData/Local/Programs/MiKTeX/fonts/tfm/public/lm/rm-lmr10.tfm" 1254938640 11868 4f81e9b6033c032bdaf9884f4d7ef412 ""
  "C:/Users/Attila/AppData/Local/Programs/MiKTeX/fonts/tfm/public/lm/rm-lmr12.tfm" 1254938640 11888 6841b91e46b65cf41a49b160e6e74130 ""
  "C:/Users/Attila/AppData/Local/Programs/MiKTeX/fonts/tfm/public/lm/rm-lmr17.tfm" 1254938640 11948 fa976674f030491ad35532a8a1e37325 ""
  "C:/Users/Attila/AppData/Local/Programs/MiKTeX/fonts/tfm/public/lm/rm-lmr5.tfm" 1254938640 11804 aefb10c002e6492c25236524a447f969 ""
  "C:/Users/Attila/AppData/Local/Programs/MiKTeX/fonts/tfm/public/lm/rm-lmr7.tfm" 1254938640 11852 5a9022f105fd1ee2797df861e79ae9a0 ""
  "C:/Users/Attila/AppData/Local/Programs/MiKTeX/fonts/tfm/public/lm/ts1-lmri10.tfm" 1254938640 1764 bd63b6aa2f40108e63ad65c1421568c6 ""
  "C:/Users/Attila/AppData/Local/Programs/MiKTeX/fonts/tfm/public/lm/ts1-lmtt9.tfm" 1254938640 1316 d775b6cda2829f488db82ccf17bc2b57 ""
  "C:/Users/Attila/AppData/Local/Programs/MiKTeX/fonts/type1/public/lm/lmbx10.pfb" 1254938640 121021 836464b5fe0c782d94085eb083550ccc ""
  "C:/Users/Attila/AppData/Local/Programs/MiKTeX/fonts/type1/public/lm/lmex10.pfb" 1254938640 23055 2e5b42921de910eaa97b85df04ca4891 ""
  "C:/Users/Attila/AppData/Local/Programs/MiKTeX/fonts/type1/public/lm/lmmi10.pfb" 1254938640 30388 702fae6a5f0e6e9c48a1d872b442ffcf ""
  "C:/Users/Attila/AppData/Local/Programs/MiKTeX/fonts/type1/public/lm/lmmi5.pfb" 1254938640 31443 ba2241b179aa231f73e052863720cb42 ""
  "C:/Users/Attila/AppData/Local/Programs/MiKTeX/fonts/type1/public/lm/lmmi7.pfb" 1254938640 30789 39c6b966e509dbc60e7a1aaaf85d08a0 ""
  "C:/Users/Attila/AppData/Local/Programs/MiKTeX/fonts/type1/public/lm/lmr10.pfb" 1254938640 119235 05e5c8d6d60439433e50047898c2c0e0 ""
  "C:/Users/Attila/AppData/Local/Programs/MiKTeX/fonts/type1/public/lm/lmr5.pfb" 1254938640 120387 4904c2679a7b90fe9e17171d6c7c9dd0 ""
  "C:/Users/Attila/AppData/Local/Programs/MiKTeX/fonts/type1/public/lm/lmr7.pfb" 1254938640 121145 00b210fbe9efd7ce850c04e64670de9a ""
  "C:/Users/Attila/AppData/Local/Programs/MiKTeX/fonts/type1/public/lm/lmri10.pfb" 1254938640 112593 fda2373ba4420af33949610de4c28fe8 ""
  "C:/Users/Attila/AppData/Local/Programs/MiKTeX/fonts/type1/public/lm/lmss12.pfb" 1254938640 96107 daf52840b555e3b38f9679b629b5e2df ""
  "C:/Users/Attila/AppData/Local/Programs/MiKTeX/fonts/type1/public/lm/lmssbx10.pfb" 1254938640 119663 1a3a2206591ddc98c6d6c6271a282516 ""
  "C:/Users/Attila/AppData/Local/Programs/MiKTeX/fonts/type1/public/lm/lmsy10.pfb" 1254938640 27863 09ce3735688ffde955e72da27c95b61a ""
  "C:/Users/Attila/AppData/Local/Programs/MiKTeX/fonts/type1/public/lm/lmsy7.pfb" 1254938640 27941 d1f5d03f61a46c3fcc3a2ba904ddda52 ""
  "C:/Users/Attila/AppData/Local/Programs/MiKTeX/fonts/type1/public/lm/lmtk10.pfb" 1254938640 117319 28a05fff1cac98366062ffbb2e22858d ""
  "C:/Users/Attila/AppData/Local/Programs/MiKTeX/fonts/type1/public/lm/lmtt10.pfb" 1254938640 113227 d3d1adc024746ff57b20efba82c6d365 ""
  "C:/Users/Attila/AppData/Local/Programs/MiKTeX/fonts/type1/public/lm/lmtt9.pfb" 1254938640 108480 ee1de99df36ee0a16b36023b9c9d8a58 ""
  "C:/Users/Attila/AppData/Local/Programs/MiKTeX/fonts/type1/public/lm/lmtti10.pfb" 1254938640 98822 8ee4d12584884e9da356662e14d316f9 ""
  "C:/Users/Attila/AppData/Local/Programs/MiKTeX/tex/context/base/mkii/supp-pdf.mkii" 1580393758 71627 94eb9990bed73c364d7f53f960cc8c5b ""
  "C:/Users/Attila/AppData/Local/Programs/MiKTeX/tex/generic/atbegshi/atbegshi.sty" 1575574700 24708 5584a51a7101caf7e6bbf1fc27d8f7b1 ""
  "C:/Users/Attila/AppData/Local/Programs/MiKTeX/tex/generic/babel/babel.def" 1611682125 117888 66b7eb0f9cd7bd253f76713fb2e2ee4a ""
  "C:/Users/Attila/AppData/Local/Programs/MiKTeX/tex/generic/babel/babel.sty" 1611682125 37868 ba045e7d3943071ea1a8258e20cd3f09 ""
  "C:/Users/Attila/AppData/Local/Programs/MiKTeX/tex/generic/babel/txtbabel.def" 1611682125 5230 84624d139fa443f96294434bccf82f8c ""
  "C:/Users/Attila/AppData/Local/Programs/MiKTeX/tex/generic/bigintcalc/bigintcalc.sty" 1576437202 40635 c40361e206be584d448876bba8a64a3b ""
  "C:/Users/Attila/AppData/Local/Programs/MiKTeX/tex/generic/bitset/bitset.sty" 1575930176 33961 6b5c75130e435b2bfdb9f480a09a39f9 ""
  "C:/Users/Attila/AppData/Local/Programs/MiKTeX/tex/generic/etexcmds/etexcmds.sty" 1576437238 7734 b98cbb34c81f667027c1e3ebdbfce34b ""
  "C:/Users/Attila/AppData/Local/Programs/MiKTeX/tex/generic/gettitlestring/gettitlestring.sty" 1576437266 8371 9d55b8bd010bc717624922fb3477d92e ""
  "C:/Users/Attila/AppData/Local/Programs/MiKTeX/tex/generic/iftex/iftex.sty" 1583527000 6501 4011d89d9621e0b0901138815ba5ff29 ""
  "C:/Users/Attila/AppData/Local/Programs/MiKTeX/tex/generic/iftex/ifvtex.sty" 1583527000 1057 525c2192b5febbd8c1f662c9468335bb ""
  "C:/Users/Attila/AppData/Local/Programs/MiKTeX/tex/generic/infwarerr/infwarerr.sty" 1575403108 8356 7bbb2c2373aa810be568c29e333da8ed ""
  "C:/Users/Attila/AppData/Local/Programs/MiKTeX/tex/generic/intcalc/intcalc.sty" 1576437364 31769 002a487f55041f8e805cfbf6385ffd97 ""
  "C:/Users/Attila/AppData/Local/Programs/MiKTeX/tex/generic/kvdefinekeys/kvdefinekeys.sty" 1576766904 5412 d5a2436094cd7be85769db90f29250a6 ""
  "C:/Users/Attila/AppData/Local/Programs/MiKTeX/tex/generic/kvsetkeys/kvsetkeys.sty" 1576437420 13807 952b0226d4efca026f0e19dd266dcc22 ""
  "C:/Users/Attila/AppData/Local/Programs/MiKTeX/tex/generic/ltxcmds/ltxcmds.sty" 1601735609 18568 4409f8f50cd365c68e684407e5350b1b ""
  "C:/Users/Attila/AppData/Local/Programs/MiKTeX/tex/generic/pdfescape/pdfescape.sty" 1575930300 19007 15924f7228aca6c6d184b115f4baa231 ""
  "C:/Users/Attila/AppData/Local/Programs/MiKTeX/tex/generic/pdftexcmds/pdftexcmds.sty" 1593443540 20835 80423eac55aa175305d35b49e04fe23b ""
  "C:/Users/Attila/AppData/Local/Programs/MiKTeX/tex/generic/uniquecounter/uniquecounter.sty" 1576437612 7008 f92eaa0a3872ed622bbf538217cd2ab7 ""
  "C:/Users/Attila/AppData/Local/Programs/MiKTeX/tex/latex/amsfonts/amsfonts.sty" 1358201372 5949 3f3fd50a8cc94c3d4cbf4fc66cd3df1c ""
  "C:/Users/Attila/AppData/Local/Programs/MiKTeX/tex/latex/amsfonts/amssymb.sty" 1358201372 13829 94730e64147574077f8ecfea9bb69af4 ""
  "C:/Users/Attila/AppData/Local/Programs/MiKTeX/tex/latex/amsfonts/umsa.fd" 1358201372 961 6518c6525a34feb5e8250ffa91731cff ""
  "C:/Users/Attila/AppData/Local/Programs/MiKTeX/tex/latex/amsfonts/umsb.fd" 1358201372 961 d02606146ba5601b5645f987c92e6193 ""
  "C:/Users/Attila/AppData/Local/Programs/MiKTeX/tex/latex/amsmath/amsbsy.sty" 1601808549 2283 ca7ce284ab93c8eecdc6029dc5ccbd73 ""
  "C:/Users/Attila/AppData/Local/Programs/MiKTeX/tex/latex/amsmath/amsgen.sty" 1601808551 4297 7f6eb9092061a11f87d08ed13515b48d ""
  "C:/Users/Attila/AppData/Local/Programs/MiKTeX/tex/latex/amsmath/amsmath.sty" 1601808552 90280 2c21ff5f2e32e1bf714e600924d810db ""
  "C:/Users/Attila/AppData/Local/Programs/MiKTeX/tex/latex/amsmath/amsopn.sty" 1601808553 4233 32e6abd27229755a83a8b7f18e583890 ""
  "C:/Users/Attila/AppData/Local/Programs/MiKTeX/tex/latex/amsmath/amstext.sty" 1601808553 2508 8ff93b1137020e8f21930562a874ae66 ""
  "C:/Users/Attila/AppData/Local/Programs/MiKTeX/tex/latex/arabi/bblopts.cfg" 1139965200 902 c30e5c373bc58bde21f8f63a3091626f ""
  "C:/Users/Attila/AppData/Local/Programs/MiKTeX/tex/latex/atveryend/atveryend.sty" 1576104710 19336 ce7ae9438967282886b3b036cfad1e4d ""
  "C:/Users/Attila/AppData/Local/Programs/MiKTeX/tex/latex/auxhook/auxhook.sty" 1576542332 3935 57aa3c3e203a5c2effb4d2bd2efbc323 ""
  "C:/Users/Attila/AppData/Local/Programs/MiKTeX/tex/latex/babel-english/english.ldf" 1496846498 7219 9ff5fdcc865b01beca2b0fe4a46231d4 ""
  "C:/Users/Attila/AppData/Local/Programs/MiKTeX/tex/latex/base/alltt.sty" 1610124346 3140 3b501b609b11ff7320ce1a19dbac0e3b ""
  "C:/Users/Attila/AppData/Local/Programs/MiKTeX/tex/latex/base/atbegshi-ltx.sty" 1610124346 2973 00085839f5881178c538db5970d3c38e ""
  "C:/Users/Attila/AppData/Local/Programs/MiKTeX/tex/latex/base/atveryend-ltx.sty" 1610124346 2596 b3a02e33035865e9f0457e064d436fb8 ""
  "C:/Users/Attila/AppData/Local/Programs/MiKTeX/tex/latex/base/fontenc.sty" 1610124346 4947 8cb7717f0cc771eca0fda15160c7fee9 ""
  "C:/Users/Attila/AppData/Local/Programs/MiKTeX/tex/latex/base/inputenc.sty" 1610124346 5050 0d3b77275060ca09a40635b830c3c904 ""
  "C:/Users/Attila/AppData/Local/Programs/MiKTeX/tex/latex/base/makeidx.sty" 1610124346 1940 dd4f2aa11c89855a3c47d09758782ba5 ""
  "C:/Users/Attila/AppData/Local/Programs/MiKTeX/tex/latex/base/report.cls" 1610124346 23204 74c91ecbcc47161218f25d9d0651c0f7 ""
  "C:/Users/Attila/AppData/Local/Programs/MiKTeX/tex/latex/base/size10.clo" 1610124346 8449 a72d5d4e612221b46000c3d71724e0ef ""
  "C:/Users/Attila/AppData/Local/Programs/MiKTeX/tex/latex/base/textcomp.sty" 1610124346 2821 2c0928feafd5527387e29a1af774d030 ""
  "C:/Users/Attila/AppData/Local/Programs/MiKTeX/tex/latex/capt-of/capt-of.sty" 1264508265 1344 063f8536a047a2d9cb1803321f793f37 ""
  "C:/Users/Attila/AppData/Local/Programs/MiKTeX/tex/latex/cmap/cmap.sty" 1612613098 3574 ddc11a0ae1c579d351ed20d2319ad422 ""
  "C:/Users/Attila/AppData/Local/Programs/MiKTeX/tex/latex/cmap/ot1.cmap" 1612613098 1207 4e0d96772f0d338847cbfb4eca683c81 ""
  "C:/Users/Attila/AppData/Local/Programs/MiKTeX/tex/latex/cmap/t1.cmap" 1612613098 1938 beaa4a8467aa0074076e0e19f2992e29 ""
  "C:/Users/Attila/AppData/Local/Programs/MiKTeX/tex/latex/epstopdf-pkg/epstopdf-base.sty" 1580045142 14411 d1306dcf79a944f6988e688c1785f9ce ""
  "C:/Users/Attila/AppData/Local/Programs/MiKTeX/tex/latex/fancyhdr/fancyhdr.sty" 1612005444 17086 7ed8cbc4d361ec87392817e0dd4f65ec ""
  "C:/Users/Attila/AppData/Local/Programs/MiKTeX/tex/latex/fancyvrb/fancyvrb.sty" 1611178537 43232 77215847fb982a414a0d843125e271d4 ""
  "C:/Users/Attila/AppData/Local/Programs/MiKTeX/tex/latex/float/float.sty" 1469023953 6916 16d2656a1984957e674b149555f1ea1d ""
  "C:/Users/Attila/AppData/Local/Programs/MiKTeX/tex/latex/fncychap/fncychap.sty" 1291946648 19488 fdd52eb173b3197d748e1ec25acb042f ""
  "C:/Users/Attila/AppData/Local/Programs/MiKTeX/tex/latex/framed/framed.sty" 1338542172 22449 7ec15c16d0d66790f28e90343c5434a3 ""
  "C:/Users/Attila/AppData/Local/Programs/MiKTeX/tex/latex/geometry/geometry.cfg" 1578057145 1104 7ac475a4e3466b0b43e138e9356bda83 ""
  "C:/Users/Attila/AppData/Local/Programs/MiKTeX/tex/latex/geometry/geometry.sty" 1578057145 42759 9cf6c5257b1bc7af01a58859749dd37a ""
  "C:/Users/Attila/AppData/Local/Programs/MiKTeX/tex/latex/graphics-cfg/color.cfg" 1465894292 1213 620bba36b25224fa9b7e1ccb4ecb76fd ""
  "C:/Users/Attila/AppData/Local/Programs/MiKTeX/tex/latex/graphics-cfg/graphics.cfg" 1465894292 1224 978390e9c2234eab29404bc21b268d1e ""
  "C:/Users/Attila/AppData/Local/Programs/MiKTeX/tex/latex/graphics-def/pdftex.def" 1601878198 19103 48d29b6e2a64cb717117ef65f107b404 ""
  "C:/Users/Attila/AppData/Local/Programs/MiKTeX/tex/latex/graphics/color.sty" 1601745126 7300 5b27b7e61091c6128cd6300e21704e4b ""
  "C:/Users/Attila/AppData/Local/Programs/MiKTeX/tex/latex/graphics/graphics.sty" 1601745126 18881 a8c6a275b34ab6717ceeb8fa04b104e2 ""
  "C:/Users/Attila/AppData/Local/Programs/MiKTeX/tex/latex/graphics/graphicx.sty" 1601745126 8167 20fdfdd783821971c55bc8ee918cbe63 ""
  "C:/Users/Attila/AppData/Local/Programs/MiKTeX/tex/latex/graphics/keyval.sty" 1601745126 2677 e3b24ff953e5b58d924f163d25380312 ""
  "C:/Users/Attila/AppData/Local/Programs/MiKTeX/tex/latex/graphics/trig.sty" 1601745126 4093 d7fa7d81d2870d509d25b17d0245e735 ""
  "C:/Users/Attila/AppData/Local/Programs/MiKTeX/tex/latex/hycolor/hycolor.sty" 1580384392 18571 4c28a13fc3d975e6e81c9bea1d697276 ""
  "C:/Users/Attila/AppData/Local/Programs/MiKTeX/tex/latex/hyperref/hpdftex.def" 1613044596 49890 b908259c66be9b657ff90938ccfa48e2 ""
  "C:/Users/Attila/AppData/Local/Programs/MiKTeX/tex/latex/hyperref/hyperref-langpatches.def" 1613044596 1777 d5bc248f36a3eb933dd555cdae114c00 ""
  "C:/Users/Attila/AppData/Local/Programs/MiKTeX/tex/latex/hyperref/hyperref.sty" 1613044596 230829 ee909406455458f49b99376d681f801d ""
  "C:/Users/Attila/AppData/Local/Programs/MiKTeX/tex/latex/hyperref/nameref.sty" 1613044596 13242 133e617c5eebffdd05e421624022b267 ""
  "C:/Users/Attila/AppData/Local/Programs/MiKTeX/tex/latex/hyperref/pd1enc.def" 1613044596 14132 d91326c83d15189737a52fd5ebf68728 ""
  "C:/Users/Attila/AppData/Local/Programs/MiKTeX/tex/latex/hyperref/puenc.def" 1613044596 116999 edbdb70039f0909b8ceabb75a0585775 ""
  "C:/Users/Attila/AppData/Local/Programs/MiKTeX/tex/latex/kvoptions/kvoptions.sty" 1602228096 22521 d2fceb764a442a2001d257ef11db7618 ""
  "C:/Users/Attila/AppData/Local/Programs/MiKTeX/tex/latex/l3backend/l3backend-pdftex.def" 1613662212 27164 09c696e2ed5c5986662c62a27622e9cd ""
  "C:/Users/Attila/AppData/Local/Programs/MiKTeX/tex/latex/latex-tools/array.sty" 1602847617 13051 9a7bbb9e485cd81cdcc1d56212b088ff ""
  "C:/Users/Attila/AppData/Local/Programs/MiKTeX/tex/latex/latex-tools/longtable.sty" 1602847617 12581 b1e3e65b69714dbfcc5e6c0b19d66b50 ""
  "C:/Users/Attila/AppData/Local/Programs/MiKTeX/tex/latex/letltxmacro/letltxmacro.sty" 1575403136 5766 13a9e8766c47f30327caf893ece86ac8 ""
  "C:/Users/Attila/AppData/Local/Programs/MiKTeX/tex/latex/lm/lmodern.sty" 1256933040 1606 c17281c7cff2bbd7ff0173e1433487ec ""
  "C:/Users/Attila/AppData/Local/Programs/MiKTeX/tex/latex/lm/omllmm.fd" 1256933040 888 44447a3a3af84a22454ef89500942d93 ""
  "C:/Users/Attila/AppData/Local/Programs/MiKTeX/tex/latex/lm/omslmsy.fd" 1256933040 805 af340a8260c447aa315cfc740ff0152f ""
  "C:/Users/Attila/AppData/Local/Programs/MiKTeX/tex/latex/lm/omxlmex.fd" 1256933040 566 a94661f7b66063f191960bb7935b6ba2 ""
  "C:/Users/Attila/AppData/Local/Programs/MiKTeX/tex/latex/lm/ot1lmr.fd" 1256933040 1880 bae7b659316f7344a86218ad38b01d91 ""
  "C:/Users/Attila/AppData/Local/Programs/MiKTeX/tex/latex/lm/t1lmr.fd" 1256933040 1865 afbfccbe7fda9c2dc5078ad7c486bbed ""
  "C:/Users/Attila/AppData/Local/Programs/MiKTeX/tex/latex/lm/t1lmss.fd" 1256933040 1639 ba1c66ef577aa5cadc2c0fdc691a26ee ""
  "C:/Users/Attila/AppData/Local/Programs/MiKTeX/tex/latex/lm/t1lmtt.fd" 1256933040 2681 354015af3b61e7be30009f084986375a ""
  "C:/Users/Attila/AppData/Local/Programs/MiKTeX/tex/latex/lm/ts1lmr.fd" 1256933040 1912 6435298ac30b512714b02d4c8c9e923c ""
  "C:/Users/Attila/AppData/Local/Programs/MiKTeX/tex/latex/lm/ts1lmtt.fd" 1256933040 2738 60cde6308634ac88dfb85e181fc1b345 ""
  "C:/Users/Attila/AppData/Local/Programs/MiKTeX/tex/latex/mmap/oml.cmap" 1215051813 1866 c1c12138091b4a8edd4a24a940e6f792 ""
  "C:/Users/Attila/AppData/Local/Programs/MiKTeX/tex/latex/mmap/oms.cmap" 1215051813 2370 3b1f71b14b974f07cef532db09ae9ee0 ""
  "C:/Users/Attila/AppData/Local/Programs/MiKTeX/tex/latex/mmap/omx.cmap" 1215051860 3001 252c8ca42b06a22cb1a11c0e47790c6e ""
  "C:/Users/Attila/AppData/Local/Programs/MiKTeX/tex/latex/needspace/needspace.sty" 1364796577 852 0e34dbb72efc69fa07602405ad95585e ""
  "C:/Users/Attila/AppData/Local/Programs/MiKTeX/tex/latex/oberdiek/hypcap.sty" 1599153960 3822 b53c749cd81352b4679a35b0dafefb95 ""
  "C:/Users/Attila/AppData/Local/Programs/MiKTeX/tex/latex/parskip/parskip-2001-04-09.sty" 1614697120 2757 ea00cb4f4e9abc702916f74d3812ef67 ""
  "C:/Users/Attila/AppData/Local/Programs/MiKTeX/tex/latex/parskip/parskip.sty" 1614788568 4288 8314ab6f56a049e82c4322f6919d2bd2 ""
  "C:/Users/Attila/AppData/Local/Programs/MiKTeX/tex/latex/psnfss/times.sty" 1585926771 888 8e0e5c8cca7b18e0400f97f5a2b90a99 ""
  "C:/Users/Attila/AppData/Local/Programs/MiKTeX/tex/latex/refcount/refcount.sty" 1576437552 9878 9e94e8fa600d95f9c7731bb21dfb67a4 ""
  "C:/Users/Attila/AppData/Local/Programs/MiKTeX/tex/latex/rerunfilecheck/rerunfilecheck.sty" 1575574882 9715 b051d5b493d9fe5f4bc251462d039e5f ""
  "C:/Users/Attila/AppData/Local/Programs/MiKTeX/tex/latex/tabulary/tabulary.sty" 1403519108 14242 8c83287d79183c3bf58fd70871e8a70b ""
  "C:/Users/Attila/AppData/Local/Programs/MiKTeX/tex/latex/titlesec/titlesec.sty" 1571243658 48596 2b6a95da931c07a430b1a61904aaa42d ""
  "C:/Users/Attila/AppData/Local/Programs/MiKTeX/tex/latex/upquote/upquote.sty" 1335534756 1088 517e01cde97c1c0baf72e69d43aa5a2e ""
  "C:/Users/Attila/AppData/Local/Programs/MiKTeX/tex/latex/url/url.sty" 1388494052 12796 8edb7d69a20b857904dd0ea757c14ec9 ""
  "C:/Users/Attila/AppData/Local/Programs/MiKTeX/tex/latex/varwidth/varwidth.sty" 1238469540 10894 d359a13923460b2a73d4312d613554c8 ""
  "C:/Users/Attila/AppData/Local/Programs/MiKTeX/tex/latex/wrapfig/wrapfig.sty" 1044406800 26220 3701aebf80ccdef248c0c20dd062fea9 ""
  "C:/Users/Attila/AppData/Local/Programs/MiKTeX/tex/latex/xcolor/xcolor.sty" 1463135581 57049 34128738f682d033422ca125f82e5d62 ""
  "footnotehyper-sphinx.sty" 1597428826 8888 1bbd7bdeae8c8bed1d10d551bddb1cc9 ""
  "sphinx.sty" 1597428826 82155 76e1169ffc917b7b0448ff4c656bfb06 ""
  "sphinxhighlight.sty" 1633504168 8242 38a433148fcb7611515a989ff1750dd5 ""
  "sphinxmanual.cls" 1597428826 4236 124cd90deb92742b5d3922bfc2cd70c0 ""
  "sphinxmessages.sty" 1633504168 765 3f5fcd6cdd7964ed608767954a8ced6f ""
  "sphinxmulticell.sty" 1597428826 14606 0b6edc2b1a83546ed92026d1f6a311b5 ""
  "statchem.aux" 1633504177 4418 e06eedfd3e9bf89c267aa389d8e033f6 "pdflatex"
  "statchem.ind" 1620456981 3229 e5991e84b060c7e15e548f2439ff34a5 "makeindex statchem.idx"
  "statchem.out" 1633504177 440 dba44d23b55350acfccfbd108038b9dc "pdflatex"
  "statchem.tex" 1633504168 60310 b3d3bb357aed46865e1cd47b43ba6657 ""
  "statchem.toc" 1633504177 277 e772d6370a8d7c856ea9e5fa2d1d4e6b "pdflatex"
  (generated)
  "statchem.aux"
  "statchem.pdf"
  "statchem.out"
  "statchem.log"
  "statchem.idx"
  "statchem.toc"
