\relax 
\providecommand\hyper@newdestlabel[2]{}
\providecommand\babel@aux[2]{}
\@nameuse{bbl@beforestart}
\providecommand\HyperFirstAtBeginDocument{\AtBeginDocument}
\HyperFirstAtBeginDocument{\ifx\hyper@anchor\@undefined
\global\let\oldcontentsline\contentsline
\gdef\contentsline#1#2#3#4{\oldcontentsline{#1}{#2}{#3}}
\global\let\oldnewlabel\newlabel
\gdef\newlabel#1#2{\newlabelxx{#1}#2}
\gdef\newlabelxx#1#2#3#4#5#6{\oldnewlabel{#1}{{#2}{#3}}}
\AtEndDocument{\ifx\hyper@anchor\@undefined
\let\contentsline\oldcontentsline
\let\newlabel\oldnewlabel
\fi}
\fi}
\global\let\hyper@last\relax 
\gdef\HyperFirstAtBeginDocument#1{#1}
\providecommand\HyField@AuxAddToFields[1]{}
\providecommand\HyField@AuxAddToCoFields[2]{}
\babel@aux{english}{}
\citation{index:ra7442fd2f050-atkins2014}
\newlabel{index::doc}{{}{1}{}{section*.2}{}}
\@writefile{toc}{\contentsline {chapter}{\numberline {1}statchem reference}{1}{chapter.1}\protected@file@percent }
\@writefile{lof}{\addvspace {10\p@ }}
\@writefile{lot}{\addvspace {10\p@ }}
\newlabel{index:statchem-reference}{{1}{1}{statchem reference}{chapter.1}{}}
\@writefile{toc}{\contentsline {section}{\numberline {1.1}statchem.thermo}{1}{section.1.1}\protected@file@percent }
\newlabel{index:statchem-thermo}{{1.1}{1}{statchem.thermo}{section.1.1}{}}
\newlabel{index:statchem.thermo.Thermo}{{1.1}{1}{statchem.thermo}{section*.3}{}}
\gdef \LT@i {\LT@entry 
    {5}{213.38394pt}\LT@entry 
    {5}{213.38394pt}}
\newlabel{index:statchem.thermo.Thermo.set_symmetry}{{1.1}{3}{statchem.thermo}{section*.4}{}}
\newlabel{index:statchem.thermo.Thermo.set_vibrations}{{1.1}{3}{statchem.thermo}{section*.5}{}}
\newlabel{index:statchem.thermo.Thermo.set_temperature}{{1.1}{3}{statchem.thermo}{section*.6}{}}
\newlabel{index:statchem.thermo.Thermo.set_pressure}{{1.1}{3}{statchem.thermo}{section*.7}{}}
\newlabel{index:statchem.thermo.Thermo.zero_point_energy}{{1.1}{3}{statchem.thermo}{section*.8}{}}
\newlabel{index:statchem.thermo.Thermo.rotational_constants}{{1.1}{4}{statchem.thermo}{section*.9}{}}
\newlabel{index:statchem.thermo.Thermo.rotational_temperatures}{{1.1}{4}{statchem.thermo}{section*.10}{}}
\newlabel{index:statchem.thermo.Thermo.vibrational_temperatures}{{1.1}{5}{statchem.thermo}{section*.11}{}}
\newlabel{index:statchem.thermo.Thermo.translational_partition}{{1.1}{6}{statchem.thermo}{section*.12}{}}
\newlabel{index:statchem.thermo.Thermo.rotational_partition}{{1.1}{6}{statchem.thermo}{section*.13}{}}
\newlabel{index:statchem.thermo.Thermo.vibrational_partition}{{1.1}{7}{statchem.thermo}{section*.14}{}}
\newlabel{index:statchem.thermo.Thermo.partition}{{1.1}{7}{statchem.thermo}{section*.15}{}}
\newlabel{index:statchem.thermo.Thermo.translational_energy}{{1.1}{8}{statchem.thermo}{section*.16}{}}
\newlabel{index:statchem.thermo.Thermo.rotational_energy}{{1.1}{8}{statchem.thermo}{section*.17}{}}
\newlabel{index:statchem.thermo.Thermo.vibrational_energy}{{1.1}{9}{statchem.thermo}{section*.18}{}}
\newlabel{index:statchem.thermo.Thermo.energy}{{1.1}{9}{statchem.thermo}{section*.19}{}}
\newlabel{index:statchem.thermo.Thermo.enthalpy}{{1.1}{10}{statchem.thermo}{section*.20}{}}
\newlabel{index:statchem.thermo.Thermo.helmholtz_energy}{{1.1}{11}{statchem.thermo}{section*.21}{}}
\newlabel{index:statchem.thermo.Thermo.gibbs_energy}{{1.1}{12}{statchem.thermo}{section*.22}{}}
\newlabel{index:statchem.thermo.Thermo.translational_entropy}{{1.1}{13}{statchem.thermo}{section*.23}{}}
\newlabel{index:statchem.thermo.Thermo.rotational_entropy}{{1.1}{13}{statchem.thermo}{section*.24}{}}
\newlabel{index:statchem.thermo.Thermo.vibrational_entropy}{{1.1}{14}{statchem.thermo}{section*.25}{}}
\newlabel{index:statchem.thermo.Thermo.entropy}{{1.1}{15}{statchem.thermo}{section*.26}{}}
\newlabel{index:statchem.thermo.Thermo.translational_heat_capacity}{{1.1}{16}{statchem.thermo}{section*.27}{}}
\newlabel{index:statchem.thermo.Thermo.rotational_heat_capacity}{{1.1}{16}{statchem.thermo}{section*.28}{}}
\newlabel{index:statchem.thermo.Thermo.vibrational_heat_capacity}{{1.1}{17}{statchem.thermo}{section*.29}{}}
\newlabel{index:statchem.thermo.Thermo.heat_capacity}{{1.1}{17}{statchem.thermo}{section*.30}{}}
\bibcite{index:ra7442fd2f050-atkins2014}{Atkins2014}
\@writefile{toc}{\contentsline {chapter}{Bibliography}{19}{chapter*.31}\protected@file@percent }
\@writefile{toc}{\contentsline {chapter}{Index}{21}{section*.32}\protected@file@percent }
\gdef \@abspage@last{25}
