\babel@toc {english}{}
\contentsline {chapter}{\numberline {1}statchem reference}{1}{chapter.1}%
\contentsline {section}{\numberline {1.1}statchem.thermo}{1}{section.1.1}%
\contentsline {chapter}{Bibliography}{19}{chapter*.31}%
\contentsline {chapter}{Index}{21}{section*.32}%
